[gd_resource type="Resource" script_class="GameEventString" load_steps=2 format=3 uid="uid://cffp0adclk36i"]

[ext_resource type="Script" path="res://scripts/game_events/game_event_string.gd" id="1_vs8q0"]

[resource]
script = ExtResource("1_vs8q0")
