[gd_resource type="Resource" script_class="GameEvent" load_steps=2 format=3 uid="uid://4ff2k3i7yepj"]

[ext_resource type="Script" path="res://scripts/game_events/game_event.gd" id="1_saftd"]

[resource]
script = ExtResource("1_saftd")
