[gd_resource type="Resource" script_class="GameEvent" load_steps=2 format=3 uid="uid://gspd1ukrx5nv"]

[ext_resource type="Script" path="res://scripts/game_events/game_event.gd" id="1_5m5x5"]

[resource]
script = ExtResource("1_5m5x5")
