[gd_resource type="Resource" script_class="GameEvent" load_steps=2 format=3 uid="uid://c26ofd4xddggg"]

[ext_resource type="Script" path="res://scripts/game_events/game_event.gd" id="1_da4yl"]

[resource]
script = ExtResource("1_da4yl")
