[gd_resource type="Resource" script_class="GameEvent" load_steps=2 format=3 uid="uid://dsbg1oafmll0a"]

[ext_resource type="Script" path="res://scripts/game_events/game_event.gd" id="1_ufebg"]

[resource]
script = ExtResource("1_ufebg")
