[gd_resource type="Resource" script_class="DialogueLine" load_steps=3 format=3 uid="uid://wi0nrfldcmb4"]

[ext_resource type="Resource" uid="uid://cm3yx3wlasbxt" path="res://resources/story/generated/CX10-masterSetAnim.tres" id="1_qevqq"]
[ext_resource type="Script" path="res://dialogues/dialogue_line.gd" id="1_yp5rq"]

[resource]
script = ExtResource("1_yp5rq")
text = "Since it's your first day here, I'm going to walk you through our summoning process."
next = ExtResource("1_qevqq")
next_path_ref = "res://resources/story/generated/CX10-masterSetAnim.tres"
