[gd_resource type="Resource" script_class="DialogueLine" load_steps=3 format=3 uid="uid://m4ywhkm2cctp"]

[ext_resource type="Resource" uid="uid://jp5hlthjiau8" path="res://resources/story/generated/P12-1.tres" id="1_ngc2d"]
[ext_resource type="Script" path="res://dialogues/dialogue_line.gd" id="1_sgmda"]

[resource]
script = ExtResource("1_sgmda")
text = "Here we use state of the art Kubikon Sumon techniques. With the Kubikon's power, we can hone our Sumo's to perfection."
next = ExtResource("1_ngc2d")
next_path_ref = "res://resources/story/generated/P12-1.tres"
