[gd_resource type="Resource" script_class="DialogueLine" load_steps=3 format=3 uid="uid://c46r2qvqvx1do"]

[ext_resource type="Resource" uid="uid://ddlbfyqba1ldn" path="res://resources/story/generated/P17-1.tres" id="1_nnx1n"]
[ext_resource type="Script" path="res://dialogues/dialogue_line.gd" id="1_tpgeu"]

[resource]
script = ExtResource("1_tpgeu")
text = "Yes. Basically we do our sumos with a magical cube."
next = ExtResource("1_nnx1n")
next_path_ref = "res://resources/story/generated/P17-1.tres"
