[gd_resource type="Resource" script_class="DialogueLine" load_steps=3 format=3 uid="uid://chj3cj5hrx52m"]

[ext_resource type="Resource" uid="uid://hjyodrsrp4nk" path="res://resources/story/generated/W29.tres" id="1_xntpd"]
[ext_resource type="Script" path="res://dialogues/dialogue_line.gd" id="1_yql1p"]

[resource]
script = ExtResource("1_yql1p")
text = "Push the [img height=50]res://art/symbols/F1.png[/img] rune to summon the sumo."
next = ExtResource("1_xntpd")
next_path_ref = "res://resources/story/generated/W29.tres"
