[gd_resource type="Resource" script_class="DialogueLine" load_steps=3 format=3 uid="uid://di61plsqfsd4"]

[ext_resource type="Resource" uid="uid://b1s6oqjmabqxb" path="res://resources/story/generated/CX82-unlockFace.tres" id="1_3c4dh"]
[ext_resource type="Script" path="res://dialogues/dialogue_line.gd" id="1_mm1qe"]

[resource]
script = ExtResource("1_mm1qe")
text = "Let's fine tune its appearance a little. I'm now giving you an enhanced cube. This one has runes on its sides and on the back too."
next = ExtResource("1_3c4dh")
next_path_ref = "res://resources/story/generated/CX82-unlockFace.tres"
