[gd_resource type="Resource" script_class="DialogueLine" load_steps=3 format=3 uid="uid://bold2e42s3e61"]

[ext_resource type="Resource" uid="uid://cijcvp0smbl8y" path="res://resources/story/generated/019b.tres" id="1_3qfom"]
[ext_resource type="Script" path="res://dialogues/dialogue_line.gd" id="1_gtsla"]

[resource]
script = ExtResource("1_gtsla")
text = "This is a very complex task, be very varefull, you need to be fast."
next = ExtResource("1_3qfom")
next_path_ref = "res://resources/story/generated/019b.tres"
