[gd_resource type="Resource" script_class="DialogueLine" load_steps=3 format=3 uid="uid://b1i73mc1ewon"]

[ext_resource type="Script" path="res://dialogues/dialogue_line.gd" id="1_4ev01"]
[ext_resource type="Resource" uid="uid://ixtgifchmwrf" path="res://resources/story/generated/021.tres" id="1_gf23t"]

[resource]
script = ExtResource("1_4ev01")
text = "Oh my god, you are a natural at this."
next = ExtResource("1_gf23t")
next_path_ref = "res://resources/story/generated/021.tres"
