[gd_resource type="Resource" script_class="DialogueLine" load_steps=3 format=3 uid="uid://bwlmbp1amb638"]

[ext_resource type="Script" path="res://dialogues/dialogue_line.gd" id="1_cq2vk"]
[ext_resource type="Resource" uid="uid://nraesa6rxwha" path="res://resources/story/generated/WE217.tres" id="1_ia13e"]

[resource]
script = ExtResource("1_cq2vk")
text = "Anyway! It's almost ready to ship. One last instruction for shipping : [img height=50]res://art/symbols/L2.png[/img]"
next = ExtResource("1_ia13e")
next_path_ref = "res://resources/story/generated/WE217.tres"
