[gd_resource type="Resource" script_class="DialogueLine" load_steps=3 format=3 uid="uid://cngerxpqp1oe"]

[ext_resource type="Script" path="res://dialogues/dialogue_line.gd" id="1_3teuc"]
[ext_resource type="Resource" uid="uid://br4g3vvx5qhp" path="res://resources/story/generated/CX239-masterLookAt.tres" id="1_obkvv"]

[resource]
script = ExtResource("1_3teuc")
text = "Oh no crap, I did a doozy... It was not that rune that needed to be pressed..."
next = ExtResource("1_obkvv")
next_path_ref = "res://resources/story/generated/CX239-masterLookAt.tres"
