[gd_resource type="Resource" script_class="DialogueLine" load_steps=3 format=3 uid="uid://sp4el8ae6ccy"]

[ext_resource type="Script" path="res://dialogues/dialogue_line.gd" id="1_4fio4"]
[ext_resource type="Resource" uid="uid://w1htqdvo1pty" path="res://resources/story/generated/P243-1.tres" id="1_kma0k"]

[resource]
script = ExtResource("1_4fio4")
text = "Ok, no biggies, you can fix this, you will need the Administrator Kubikon."
next = ExtResource("1_kma0k")
next_path_ref = "res://resources/story/generated/P243-1.tres"
