[gd_resource type="Resource" script_class="DialogueLine" load_steps=3 format=3 uid="uid://bs1pjfsj51q3r"]

[ext_resource type="Script" path="res://dialogues/dialogue_line.gd" id="1_31fkl"]
[ext_resource type="Resource" uid="uid://sqf6xwj8hdbr" path="res://resources/story/generated/028.tres" id="1_76p7u"]

[resource]
script = ExtResource("1_31fkl")
text = "You can rotate it up and down with the arrow key. Pay attention to how you rotate it or it might get tricky."
next = ExtResource("1_76p7u")
next_path_ref = "res://resources/story/generated/028.tres"
