[gd_resource type="Resource" script_class="DialogueLine" load_steps=3 format=3 uid="uid://23uta3puyuiw"]

[ext_resource type="Resource" uid="uid://b7y7fqilpvq4r" path="res://resources/story/generated/CX255-masterLookAt.tres" id="1_o5yx8"]
[ext_resource type="Script" path="res://dialogues/dialogue_line.gd" id="1_x3e2e"]

[resource]
script = ExtResource("1_x3e2e")
text = "Wop! You got it wrong."
next = ExtResource("1_o5yx8")
next_path_ref = "res://resources/story/generated/CX255-masterLookAt.tres"
