[gd_resource type="Resource" script_class="DialogueLine" load_steps=3 format=3 uid="uid://btxognbe0x7nm"]

[ext_resource type="Script" path="res://dialogues/dialogue_line.gd" id="1_ludyb"]
[ext_resource type="Resource" uid="uid://d07ghscs8je86" path="res://resources/story/generated/CX259-masterSetAnim.tres" id="1_xh56t"]

[resource]
script = ExtResource("1_ludyb")
text = "But I also got it wrong, no way for you to get it right on that one haha, you should have pushed the [img height=50]res://art/symbols/s11.png[/img] rune."
next = ExtResource("1_xh56t")
next_path_ref = "res://resources/story/generated/CX259-masterSetAnim.tres"
