[gd_resource type="Resource" script_class="DialogueLine" load_steps=3 format=3 uid="uid://b40mmp4x1c3t0"]

[ext_resource type="Resource" uid="uid://dqj87cfqb65aw" path="res://resources/story/generated/W266.tres" id="1_b4vao"]
[ext_resource type="Script" path="res://dialogues/dialogue_line.gd" id="1_e0dsf"]

[resource]
script = ExtResource("1_e0dsf")
text = "Be very careful, the administrator Kubikon is VERY powerful, its powers are slightly different that the normal Kubikon."
next = ExtResource("1_b4vao")
next_path_ref = "res://resources/story/generated/W266.tres"
