[gd_resource type="Resource" script_class="DialogueLine" load_steps=3 format=3 uid="uid://cghy6770hgras"]

[ext_resource type="Script" path="res://dialogues/dialogue_line.gd" id="1_cyy63"]
[ext_resource type="Resource" uid="uid://mvl8pfoqtqir" path="res://resources/story/generated/037.tres" id="1_dfe1m"]

[resource]
script = ExtResource("1_cyy63")
text = "It has additional runes on the top and bottom. You can rotate it up and down with the arrow key. Pay attention to how you rotate it or it might get tricky."
next = ExtResource("1_dfe1m")
next_path_ref = "res://resources/story/generated/037.tres"
