[gd_resource type="Resource" script_class="DialogueLine" load_steps=3 format=3 uid="uid://mvl8pfoqtqir"]

[ext_resource type="Resource" uid="uid://brkv5sot1wmgi" path="res://resources/story/generated/W280.tres" id="1_lmx8v"]
[ext_resource type="Script" path="res://dialogues/dialogue_line.gd" id="1_plulu"]

[resource]
script = ExtResource("1_plulu")
text = "Be VERY careful this time, the administrator Kubikon is VERY powerful, its powers are slightly different that the normal Kubikon, you should not fool around with it."
next = ExtResource("1_lmx8v")
next_path_ref = "res://resources/story/generated/W280.tres"
