[gd_resource type="Resource" script_class="DialogueLine" load_steps=3 format=3 uid="uid://xkilgic8fuay"]

[ext_resource type="Resource" uid="uid://c6m67dlncbv82" path="res://resources/story/generated/040.tres" id="1_3dvv4"]
[ext_resource type="Script" path="res://dialogues/dialogue_line.gd" id="1_g64n8"]

[resource]
script = ExtResource("1_g64n8")
text = "Good... That is good... Damn that admin Kubikon is good..."
next = ExtResource("1_3dvv4")
next_path_ref = "res://resources/story/generated/040.tres"
