[gd_resource type="Resource" script_class="DialogueLine" load_steps=3 format=3 uid="uid://ck004r1cn447t"]

[ext_resource type="Script" path="res://dialogues/dialogue_line.gd" id="1_p4ms3"]
[ext_resource type="Resource" uid="uid://dp7uwin3o5rgv" path="res://resources/story/generated/W305.tres" id="1_v1gum"]

[resource]
script = ExtResource("1_p4ms3")
text = "This time, we get it right, the [img height=50]res://art/symbols/R2.png[/img] rune, push the [img height=50]res://art/symbols/R2.png[/img] rune."
next = ExtResource("1_v1gum")
next_path_ref = "res://resources/story/generated/W305.tres"
