[gd_resource type="Resource" script_class="DialogueLine" load_steps=3 format=3 uid="uid://fkrvgou6ohh4"]

[ext_resource type="Resource" uid="uid://dksmk1kbifebn" path="res://resources/story/generated/C417-masterLeaves.tres" id="1_m5vi8"]
[ext_resource type="Script" path="res://dialogues/dialogue_line.gd" id="1_nqhnp"]

[resource]
script = ExtResource("1_nqhnp")
text = "Let me check the manual."
next = ExtResource("1_m5vi8")
next_path_ref = "res://resources/story/generated/C417-masterLeaves.tres"
