[gd_resource type="Resource" script_class="DialogueLine" load_steps=3 format=3 uid="uid://crs8gxdc4rl22"]

[ext_resource type="Script" path="res://dialogues/dialogue_line.gd" id="1_hdfcn"]
[ext_resource type="Resource" uid="uid://j2yjkhi0y55n" path="res://resources/story/generated/058.tres" id="1_yys2j"]

[resource]
script = ExtResource("1_hdfcn")
text = "Oh wait I was wrong!... Oh... Oh! You did it!"
next = ExtResource("1_yys2j")
next_path_ref = "res://resources/story/generated/058.tres"
