[gd_resource type="Resource" script_class="DialogueLine" load_steps=3 format=3 uid="uid://8h5chmcg1aud"]

[ext_resource type="Script" path="res://dialogues/dialogue_line.gd" id="1_0msfm"]
[ext_resource type="Resource" uid="uid://r2nt0igabwu6" path="res://resources/story/generated/P406-1.tres" id="1_jbpg0"]

[resource]
script = ExtResource("1_0msfm")
text = "[shake rate=80.0 level=10 connected=1][color=#4D004D]You wiiillll regret this...[/color][/shake]"
next = ExtResource("1_jbpg0")
next_path_ref = "res://resources/story/generated/P406-1.tres"
