[gd_resource type="Resource" script_class="DialogueLine" load_steps=3 format=3 uid="uid://v58w2enfi3ax"]

[ext_resource type="Script" path="res://dialogues/dialogue_line.gd" id="1_0cs2d"]
[ext_resource type="Resource" uid="uid://b8v78k681sygs" path="res://resources/story/generated/0gend2.tres" id="1_amvgk"]

[resource]
script = ExtResource("1_0cs2d")
text = "It's not working at all!!"
next = ExtResource("1_amvgk")
next_path_ref = "res://resources/story/generated/0gend2.tres"
