[gd_resource type="Resource" script_class="StoryNode" load_steps=3 format=3 uid="uid://bvp8fg8hvl2qk"]

[ext_resource type="Resource" uid="uid://c0xn44f5gckug" path="res://resources/story/generated/W383.tres" id="1_7srjd"]
[ext_resource type="Script" path="res://scripts/story_flow/story_node.gd" id="1_e5ipt"]

[resource]
script = ExtResource("1_e5ipt")
next = ExtResource("1_7srjd")
next_path_ref = "res://resources/story/generated/W383.tres"
