[gd_resource type="Resource" script_class="StoryNode" load_steps=3 format=3 uid="uid://bm0bcekvoquko"]

[ext_resource type="Resource" uid="uid://dfxxao2wu4jx2" path="res://resources/story/generated/W340.tres" id="1_b414v"]
[ext_resource type="Script" path="res://scripts/story_flow/story_node.gd" id="1_xsscd"]

[resource]
script = ExtResource("1_xsscd")
next = ExtResource("1_b414v")
next_path_ref = "res://resources/story/generated/W340.tres"
