[gd_resource type="Resource" script_class="SetBoolNode" load_steps=4 format=3 uid="uid://dqubspah5wbfn"]

[ext_resource type="Resource" uid="uid://cud6ekksggcsp" path="res://resources/story/generated/W106.tres" id="1_e0imj"]
[ext_resource type="Script" path="res://scripts/story_flow/set_bool_node.gd" id="1_x3sev"]
[ext_resource type="Resource" uid="uid://c3oc50jboqove" path="res://resources/story/generated_values/FailHair.tres" id="2_ps43i"]

[resource]
script = ExtResource("1_x3sev")
valueRef = ExtResource("2_ps43i")
next = ExtResource("1_e0imj")
next_path_ref = "res://resources/story/generated/W106.tres"
