[gd_resource type="Resource" script_class="SetBoolNode" load_steps=4 format=3 uid="uid://dl5ixr05ly0m2"]

[ext_resource type="Script" path="res://scripts/story_flow/set_bool_node.gd" id="1_rqtoc"]
[ext_resource type="Resource" uid="uid://hamxcn5kqfww" path="res://resources/story/generated/partChange150-Hips-Pants_Underwear.tres" id="1_wbrxl"]
[ext_resource type="Resource" uid="uid://co64jwxbecjnt" path="res://resources/story/generated_values/FailSumo.tres" id="2_rhqqo"]

[resource]
script = ExtResource("1_rqtoc")
valueRef = ExtResource("2_rhqqo")
next = ExtResource("1_wbrxl")
next_path_ref = "res://resources/story/generated/partChange150-Hips-Pants_Underwear.tres"
