[gd_resource type="Resource" script_class="SetBoolNode" load_steps=4 format=3 uid="uid://dilo2j5v5tipb"]

[ext_resource type="Script" path="res://scripts/story_flow/set_bool_node.gd" id="1_63wqt"]
[ext_resource type="Resource" uid="uid://h2ualgmwbxdh" path="res://resources/story/generated/W92.tres" id="1_wt5ki"]
[ext_resource type="Resource" uid="uid://c3oc50jboqove" path="res://resources/story/generated_values/FailHair.tres" id="2_88kq4"]

[resource]
script = ExtResource("1_63wqt")
valueRef = ExtResource("2_88kq4")
next = ExtResource("1_wt5ki")
next_path_ref = "res://resources/story/generated/W92.tres"
