[gd_resource type="Resource" script_class="SetBoolNode" load_steps=4 format=3 uid="uid://bya2r1jk0p2f2"]

[ext_resource type="Script" path="res://scripts/story_flow/set_bool_node.gd" id="1_81p8r"]
[ext_resource type="Resource" uid="uid://dy667gfvyur0r" path="res://resources/story/generated/W99.tres" id="1_lwtqy"]
[ext_resource type="Resource" uid="uid://c3oc50jboqove" path="res://resources/story/generated_values/FailHair.tres" id="2_ujq4c"]

[resource]
script = ExtResource("1_81p8r")
valueRef = ExtResource("2_ujq4c")
next = ExtResource("1_lwtqy")
next_path_ref = "res://resources/story/generated/W99.tres"
