[gd_resource type="Resource" script_class="EventNode" load_steps=4 format=3 uid="uid://ck1s4l7ovvka5"]

[ext_resource type="Resource" uid="uid://bjp738x0rfsh8" path="res://resources/story/generated_events/demonKingMusic.tres" id="1_j1fby"]
[ext_resource type="Resource" uid="uid://cjk3t1gm5msqj" path="res://resources/story/generated/partChange448-Arm_L1-Arm_L_DemonKing.tres" id="2_0iega"]
[ext_resource type="Script" path="res://scripts/story_flow/event_node.gd" id="2_marts"]

[resource]
script = ExtResource("2_marts")
event = ExtResource("1_j1fby")
args = []
next = ExtResource("2_0iega")
next_path_ref = "res://resources/story/generated/partChange448-Arm_L1-Arm_L_DemonKing.tres"
