[gd_resource type="Resource" script_class="EventNode" load_steps=4 format=3 uid="uid://bo5jn7yped14p"]

[ext_resource type="Resource" uid="uid://cffp0adclk36i" path="res://resources/story/generated_events/masterSetAnim.tres" id="1_3hrbk"]
[ext_resource type="Script" path="res://scripts/story_flow/event_node.gd" id="2_30v0o"]
[ext_resource type="Resource" uid="uid://m265vcld6vfo" path="res://resources/story/generated/C502-masterLookAt.tres" id="2_t1wqb"]

[resource]
script = ExtResource("2_30v0o")
event = ExtResource("1_3hrbk")
args = ["Surprised"]
next = ExtResource("2_t1wqb")
next_path_ref = "res://resources/story/generated/C502-masterLookAt.tres"
