[gd_resource type="Resource" script_class="EventNode" load_steps=4 format=3 uid="uid://6cawybrwfmo7"]

[ext_resource type="Resource" uid="uid://bomm5jwe512ok" path="res://resources/story/generated_events/masterLeaves.tres" id="1_28j8w"]
[ext_resource type="Resource" uid="uid://meo8ah26x5oy" path="res://resources/story/generated/CX505-changeSpeaker.tres" id="2_f2ll4"]
[ext_resource type="Script" path="res://scripts/story_flow/event_node.gd" id="2_q8gyw"]

[resource]
script = ExtResource("2_q8gyw")
event = ExtResource("1_28j8w")
args = []
next = ExtResource("2_f2ll4")
next_path_ref = "res://resources/story/generated/CX505-changeSpeaker.tres"
