[gd_resource type="Resource" script_class="EventNode" load_steps=4 format=3 uid="uid://cskshjrhbreja"]

[ext_resource type="Resource" uid="uid://cffp0adclk36i" path="res://resources/story/generated_events/masterSetAnim.tres" id="1_ebaa5"]
[ext_resource type="Script" path="res://scripts/story_flow/event_node.gd" id="2_bhrex"]
[ext_resource type="Resource" uid="uid://3aqsa2ubxfi3" path="res://resources/story/generated/006.tres" id="2_vdy6g"]

[resource]
script = ExtResource("2_bhrex")
event = ExtResource("1_ebaa5")
args = ["Serious"]
next = ExtResource("2_vdy6g")
next_path_ref = "res://resources/story/generated/006.tres"
