[gd_resource type="Resource" script_class="EventNode" load_steps=4 format=3 uid="uid://fd0qkkgrc2a2"]

[ext_resource type="Resource" uid="uid://csqdmrtelvb7d" path="res://resources/story/generated_events/unlockFace.tres" id="1_kijxx"]
[ext_resource type="Script" path="res://scripts/story_flow/event_node.gd" id="2_3kcaj"]
[ext_resource type="Resource" uid="uid://c7kpg33engodr" path="res://resources/story/generated/CX246-unlockFace.tres" id="2_24kt8"]

[resource]
script = ExtResource("2_3kcaj")
event = ExtResource("1_kijxx")
args = [2]
next = ExtResource("2_24kt8")
next_path_ref = "res://resources/story/generated/CX246-unlockFace.tres"
