[gd_resource type="Resource" script_class="EventNode" load_steps=4 format=3 uid="uid://m20lm2176s5s"]

[ext_resource type="Resource" uid="uid://cffp0adclk36i" path="res://resources/story/generated_events/masterSetAnim.tres" id="1_b1u2j"]
[ext_resource type="Resource" uid="uid://fd0qkkgrc2a2" path="res://resources/story/generated/CX245-unlockFace.tres" id="2_6nxyo"]
[ext_resource type="Script" path="res://scripts/story_flow/event_node.gd" id="2_etgwb"]

[resource]
script = ExtResource("2_etgwb")
event = ExtResource("1_b1u2j")
args = ["Serious"]
next = ExtResource("2_6nxyo")
next_path_ref = "res://resources/story/generated/CX245-unlockFace.tres"
