[gd_resource type="Resource" script_class="EventNode" load_steps=4 format=3 uid="uid://d07ghscs8je86"]

[ext_resource type="Resource" uid="uid://cffp0adclk36i" path="res://resources/story/generated_events/masterSetAnim.tres" id="1_1084l"]
[ext_resource type="Resource" uid="uid://di16y7ee3eu3n" path="res://resources/story/generated/031.tres" id="2_d4xqj"]
[ext_resource type="Script" path="res://scripts/story_flow/event_node.gd" id="2_viiyn"]

[resource]
script = ExtResource("2_viiyn")
event = ExtResource("1_1084l")
args = ["Serious"]
next = ExtResource("2_d4xqj")
next_path_ref = "res://resources/story/generated/031.tres"
