[gd_resource type="Resource" script_class="EventNode" load_steps=4 format=3 uid="uid://d3t7tsgfmn1cy"]

[ext_resource type="Resource" uid="uid://csqdmrtelvb7d" path="res://resources/story/generated_events/unlockFace.tres" id="1_mo2a3"]
[ext_resource type="Resource" uid="uid://bctprh2akbueu" path="res://resources/story/generated/CX263-unlockFace.tres" id="2_auurp"]
[ext_resource type="Script" path="res://scripts/story_flow/event_node.gd" id="2_hv8wc"]

[resource]
script = ExtResource("2_hv8wc")
event = ExtResource("1_mo2a3")
args = [2]
next = ExtResource("2_auurp")
next_path_ref = "res://resources/story/generated/CX263-unlockFace.tres"
