[gd_resource type="Resource" script_class="EventNode" load_steps=4 format=3 uid="uid://bctprh2akbueu"]

[ext_resource type="Resource" uid="uid://csqdmrtelvb7d" path="res://resources/story/generated_events/unlockFace.tres" id="1_6eavx"]
[ext_resource type="Script" path="res://scripts/story_flow/event_node.gd" id="2_2xnix"]
[ext_resource type="Resource" uid="uid://dt4spg8sb25g8" path="res://resources/story/generated/032.tres" id="2_do6tj"]

[resource]
script = ExtResource("2_2xnix")
event = ExtResource("1_6eavx")
args = [5]
next = ExtResource("2_do6tj")
next_path_ref = "res://resources/story/generated/032.tres"
