[gd_resource type="Resource" script_class="EventNode" load_steps=4 format=3 uid="uid://bv6f6yfx4361j"]

[ext_resource type="Resource" uid="uid://cffp0adclk36i" path="res://resources/story/generated_events/masterSetAnim.tres" id="1_q4nc2"]
[ext_resource type="Resource" uid="uid://dr5oqa0ttom3y" path="res://resources/story/generated/035b.tres" id="2_0wdyo"]
[ext_resource type="Script" path="res://scripts/story_flow/event_node.gd" id="2_gwenc"]

[resource]
script = ExtResource("2_gwenc")
event = ExtResource("1_q4nc2")
args = ["Serious"]
next = ExtResource("2_0wdyo")
next_path_ref = "res://resources/story/generated/035b.tres"
