[gd_resource type="Resource" script_class="EventNode" load_steps=4 format=3 uid="uid://c02guyi2hkg7v"]

[ext_resource type="Resource" uid="uid://c2gs4gsx28e2" path="res://resources/story/generated_events/masterLookAt.tres" id="1_for3c"]
[ext_resource type="Resource" uid="uid://dm441nsodfya8" path="res://resources/story/generated/P284-1.tres" id="2_eq0ep"]
[ext_resource type="Script" path="res://scripts/story_flow/event_node.gd" id="2_evaiy"]

[resource]
script = ExtResource("2_evaiy")
event = ExtResource("1_for3c")
args = ["sumo"]
next = ExtResource("2_eq0ep")
next_path_ref = "res://resources/story/generated/P284-1.tres"
