[gd_resource type="Resource" script_class="EventNode" load_steps=4 format=3 uid="uid://du8ql15hea85w"]

[ext_resource type="Resource" uid="uid://c2gs4gsx28e2" path="res://resources/story/generated_events/masterLookAt.tres" id="1_4enkq"]
[ext_resource type="Script" path="res://scripts/story_flow/event_node.gd" id="2_8cak5"]
[ext_resource type="Resource" uid="uid://cub5qccxvax7m" path="res://resources/story/generated/CX303-masterSetAnim.tres" id="2_b6xku"]

[resource]
script = ExtResource("2_8cak5")
event = ExtResource("1_4enkq")
args = ["sumo"]
next = ExtResource("2_b6xku")
next_path_ref = "res://resources/story/generated/CX303-masterSetAnim.tres"
