[gd_resource type="Resource" script_class="EventNode" load_steps=4 format=3 uid="uid://dqae6i0nhb8w0"]

[ext_resource type="Resource" uid="uid://c2gs4gsx28e2" path="res://resources/story/generated_events/masterLookAt.tres" id="1_km5ey"]
[ext_resource type="Resource" uid="uid://cfbgoriclryrv" path="res://resources/story/generated/051.tres" id="2_27edu"]
[ext_resource type="Script" path="res://scripts/story_flow/event_node.gd" id="2_xboox"]

[resource]
script = ExtResource("2_xboox")
event = ExtResource("1_km5ey")
args = ["player"]
next = ExtResource("2_27edu")
next_path_ref = "res://resources/story/generated/051.tres"
