[gd_resource type="Resource" script_class="EventNode" load_steps=4 format=3 uid="uid://c6j35650r72xd"]

[ext_resource type="Resource" uid="uid://cffp0adclk36i" path="res://resources/story/generated_events/masterSetAnim.tres" id="1_bsjoh"]
[ext_resource type="Script" path="res://scripts/story_flow/event_node.gd" id="2_fn62n"]
[ext_resource type="Resource" uid="uid://nukkke4ow3uy" path="res://resources/story/generated/045.tres" id="2_p65h7"]

[resource]
script = ExtResource("2_fn62n")
event = ExtResource("1_bsjoh")
args = ["Gentle"]
next = ExtResource("2_p65h7")
next_path_ref = "res://resources/story/generated/045.tres"
