[gd_resource type="Resource" script_class="EventNode" load_steps=4 format=3 uid="uid://ju1cvfb8r8y3"]

[ext_resource type="Resource" uid="uid://cffp0adclk36i" path="res://resources/story/generated_events/masterSetAnim.tres" id="1_0vmca"]
[ext_resource type="Resource" uid="uid://gsg4gaquiimc" path="res://resources/story/generated/CX426-masterLookAt.tres" id="2_c0x6r"]
[ext_resource type="Script" path="res://scripts/story_flow/event_node.gd" id="2_ho8np"]

[resource]
script = ExtResource("2_ho8np")
event = ExtResource("1_0vmca")
args = ["Serious"]
next = ExtResource("2_c0x6r")
next_path_ref = "res://resources/story/generated/CX426-masterLookAt.tres"
