[gd_resource type="Resource" script_class="EventNode" load_steps=4 format=3 uid="uid://c5po50k0dlbkn"]

[ext_resource type="Resource" uid="uid://csqdmrtelvb7d" path="res://resources/story/generated_events/unlockFace.tres" id="1_3f0ej"]
[ext_resource type="Script" path="res://scripts/story_flow/event_node.gd" id="2_ib6oi"]
[ext_resource type="Resource" uid="uid://b22fp7ek28q6r" path="res://resources/story/generated/P85-2.tres" id="2_qae1h"]

[resource]
script = ExtResource("2_ib6oi")
event = ExtResource("1_3f0ej")
args = [4]
next = ExtResource("2_qae1h")
next_path_ref = "res://resources/story/generated/P85-2.tres"
