[gd_resource type="Resource" script_class="DialogueLine" load_steps=3 format=3 uid="uid://rl7v3ns11j4l"]

[ext_resource type="Script" path="res://dialogues/dialogue_line.gd" id="1_ax50f"]
[ext_resource type="Resource" uid="uid://c660pbkm6gtry" path="res://resources/story/generated/E0-2.tres" id="1_yc053"]

[resource]
script = ExtResource("1_ax50f")
text = "Well, we usually give a second chance to beginners... But I mean..."
next = ExtResource("1_yc053")
next_path_ref = "res://resources/story/generated/E0-2.tres"
