[gd_resource type="Resource" script_class="StoryNode" load_steps=2 format=3 uid="uid://tea8w75o8fx8"]

[ext_resource type="Script" path="res://scripts/story_flow/story_node.gd" id="1_h114y"]

[resource]
script = ExtResource("1_h114y")
next_path_ref = ""
