[gd_resource type="Resource" script_class="StoryNode" load_steps=3 format=3 uid="uid://tvlfj5ubbu77"]

[ext_resource type="Resource" uid="uid://b1fi7lrkxrmav" path="res://resources/story/generated/partChange181-Arm_L1-Arm_L_Long.tres" id="1_4jm5a"]
[ext_resource type="Script" path="res://scripts/story_flow/story_node.gd" id="1_iatk8"]

[resource]
script = ExtResource("1_iatk8")
next = ExtResource("1_4jm5a")
next_path_ref = "res://resources/story/generated/partChange181-Arm_L1-Arm_L_Long.tres"
