[gd_resource type="Resource" script_class="StoryNode" load_steps=3 format=3 uid="uid://bvnkv7tamr8mv"]

[ext_resource type="Script" path="res://scripts/story_flow/story_node.gd" id="1_8bvwx"]
[ext_resource type="Resource" uid="uid://wq7lpopbd1sh" path="res://resources/story/generated/partChange197-Arm_L1-Arm_L_Claws.tres" id="1_nx62r"]

[resource]
script = ExtResource("1_8bvwx")
next = ExtResource("1_nx62r")
next_path_ref = "res://resources/story/generated/partChange197-Arm_L1-Arm_L_Claws.tres"
