[gd_resource type="Resource" script_class="StoryNode" load_steps=3 format=3 uid="uid://bb4uym52gjj8m"]

[ext_resource type="Resource" uid="uid://cdnyoq0bagwlp" path="res://resources/story/generated/W325.tres" id="1_2nsa6"]
[ext_resource type="Script" path="res://scripts/story_flow/story_node.gd" id="1_y8kip"]

[resource]
script = ExtResource("1_y8kip")
next = ExtResource("1_2nsa6")
next_path_ref = "res://resources/story/generated/W325.tres"
