[gd_resource type="Resource" script_class="StoryNode" load_steps=3 format=3 uid="uid://y4v7telxyq4u"]

[ext_resource type="Resource" uid="uid://lj4vj11kmcfr" path="res://resources/story/generated/partChange54-Arm_R1-Arm_R_Normal.tres" id="1_qyk8r"]
[ext_resource type="Script" path="res://scripts/story_flow/story_node.gd" id="1_xb5xw"]

[resource]
script = ExtResource("1_xb5xw")
next = ExtResource("1_qyk8r")
next_path_ref = "res://resources/story/generated/partChange54-Arm_R1-Arm_R_Normal.tres"
