[gd_resource type="Resource" script_class="StoryNode" load_steps=3 format=3 uid="uid://d370xf2ihokwg"]

[ext_resource type="Resource" uid="uid://xl1rv5uybiwy" path="res://resources/story/generated/W65.tres" id="1_giciy"]
[ext_resource type="Script" path="res://scripts/story_flow/story_node.gd" id="1_npyad"]

[resource]
script = ExtResource("1_npyad")
next = ExtResource("1_giciy")
next_path_ref = "res://resources/story/generated/W65.tres"
