[gd_resource type="Resource" script_class="StoryNode" load_steps=3 format=3 uid="uid://caefmblsdto6i"]

[ext_resource type="Script" path="res://scripts/story_flow/story_node.gd" id="1_kjecs"]
[ext_resource type="Resource" uid="uid://bbxtopuoxlsg3" path="res://resources/story/generated/W460.tres" id="1_mc64e"]

[resource]
script = ExtResource("1_kjecs")
next = ExtResource("1_mc64e")
next_path_ref = "res://resources/story/generated/W460.tres"
