[gd_resource type="Resource" script_class="StoryNode" load_steps=3 format=3 uid="uid://c2fo50njkak2p"]

[ext_resource type="Resource" uid="uid://ciowy5tttvbml" path="res://resources/story/generated/W125.tres" id="1_h6wkq"]
[ext_resource type="Script" path="res://scripts/story_flow/story_node.gd" id="1_hv0y1"]

[resource]
script = ExtResource("1_hv0y1")
next = ExtResource("1_h6wkq")
next_path_ref = "res://resources/story/generated/W125.tres"
