[gd_resource type="Resource" script_class="PauseNode" load_steps=3 format=3 uid="uid://ca6elavptfbty"]

[ext_resource type="Resource" uid="uid://cn0upeia7nyx" path="res://resources/story/generated/CX257-masterSetAnim.tres" id="1_aohuq"]
[ext_resource type="Script" path="res://scripts/story_flow/pause_node.gd" id="1_lpnm0"]

[resource]
script = ExtResource("1_lpnm0")
time_to_wait = 1
next = ExtResource("1_aohuq")
next_path_ref = "res://resources/story/generated/CX257-masterSetAnim.tres"
