[gd_resource type="Resource" script_class="PauseNode" load_steps=3 format=3 uid="uid://diumluyg1j575"]

[ext_resource type="Script" path="res://scripts/story_flow/pause_node.gd" id="1_vkhmm"]
[ext_resource type="Resource" uid="uid://6cawybrwfmo7" path="res://resources/story/generated/C504-masterLeaves.tres" id="1_x4w1r"]

[resource]
script = ExtResource("1_vkhmm")
time_to_wait = 2
next = ExtResource("1_x4w1r")
next_path_ref = "res://resources/story/generated/C504-masterLeaves.tres"
