[gd_resource type="Resource" script_class="ChangePartNode" load_steps=3 format=3 uid="uid://me4soj8rcrtt"]

[ext_resource type="Script" path="res://scripts/story_flow/part_change_node.gd" id="1_f5ja6"]
[ext_resource type="Resource" uid="uid://c472s85lvvetl" path="res://resources/story/generated/P359-3.tres" id="1_l7yd2"]

[resource]
script = ExtResource("1_f5ja6")
bone_name = "Wing_L"
part = "Wing_L_2D"
replace = false
next = ExtResource("1_l7yd2")
next_path_ref = "res://resources/story/generated/P359-3.tres"
