[gd_resource type="Resource" script_class="ChangePartNode" load_steps=3 format=3 uid="uid://cdssxmqdudry8"]

[ext_resource type="Script" path="res://scripts/story_flow/part_change_node.gd" id="1_mt7x6"]
[ext_resource type="Resource" uid="uid://rjf17fvj4uok" path="res://resources/story/generated/048u.tres" id="1_ndowc"]

[resource]
script = ExtResource("1_mt7x6")
bone_name = "Hips"
part = "Pants_Demonking"
replace = false
next = ExtResource("1_ndowc")
next_path_ref = "res://resources/story/generated/048u.tres"
