[gd_resource type="Resource" script_class="ChangePartNode" load_steps=3 format=3 uid="uid://d14o4b8po1muy"]

[ext_resource type="Resource" uid="uid://b0slmra7wuaqo" path="res://resources/story/generated/partChange294-Leg_L-Leg_L_Normal.tres" id="1_xe5jf"]
[ext_resource type="Script" path="res://scripts/story_flow/part_change_node.gd" id="1_y14vi"]

[resource]
script = ExtResource("1_y14vi")
bone_name = "Leg_R"
part = "Leg_R_Normal"
replace = false
next = ExtResource("1_xe5jf")
next_path_ref = "res://resources/story/generated/partChange294-Leg_L-Leg_L_Normal.tres"
