[gd_resource type="Resource" script_class="ChangePartNode" load_steps=3 format=3 uid="uid://1irsbjhr6ed"]

[ext_resource type="Script" path="res://scripts/story_flow/part_change_node.gd" id="1_mmkba"]
[ext_resource type="Resource" uid="uid://b7bt6fdorsdhp" path="res://resources/story/generated/partChange296-Hips-Pants_Normal.tres" id="1_s4x6d"]

[resource]
script = ExtResource("1_mmkba")
bone_name = "Chest"
part = "Torso_Normal"
replace = false
next = ExtResource("1_s4x6d")
next_path_ref = "res://resources/story/generated/partChange296-Hips-Pants_Normal.tres"
