[gd_resource type="Resource" script_class="ChangePartNode" load_steps=3 format=3 uid="uid://cq6g1sdnsrrcn"]

[ext_resource type="Script" path="res://scripts/story_flow/part_change_node.gd" id="1_ofi7p"]
[ext_resource type="Resource" uid="uid://hpdh08g1bpa4" path="res://resources/story/generated/partChange310-Hips-Pants_2D.tres" id="1_tl237"]

[resource]
script = ExtResource("1_ofi7p")
bone_name = "Chest"
part = "Torso_2D"
replace = true
next = ExtResource("1_tl237")
next_path_ref = "res://resources/story/generated/partChange310-Hips-Pants_2D.tres"
