[gd_resource type="Resource" script_class="ChangePartNode" load_steps=3 format=3 uid="uid://dewxs2nnp7kkn"]

[ext_resource type="Script" path="res://scripts/story_flow/part_change_node.gd" id="1_tkl0j"]
[ext_resource type="Resource" uid="uid://b4u8vp5mpcmpd" path="res://resources/story/generated/partChange292-Arm_L1-Arm_L_Normal.tres" id="1_y1hgv"]

[resource]
script = ExtResource("1_tkl0j")
bone_name = "Arm_R1"
part = "Arm_R_Normal"
replace = false
next = ExtResource("1_y1hgv")
next_path_ref = "res://resources/story/generated/partChange292-Arm_L1-Arm_L_Normal.tres"
