[gd_resource type="Resource" script_class="ChangePartNode" load_steps=3 format=3 uid="uid://b0eeqqo1y3d3l"]

[ext_resource type="Script" path="res://scripts/story_flow/part_change_node.gd" id="1_avy1d"]
[ext_resource type="Resource" uid="uid://d043lkpe6qeq" path="res://resources/story/generated/W56.tres" id="1_ieq8d"]

[resource]
script = ExtResource("1_avy1d")
bone_name = "Arm_L1"
part = "Arm_L_Normal"
replace = true
next = ExtResource("1_ieq8d")
next_path_ref = "res://resources/story/generated/W56.tres"
