[gd_resource type="Resource" script_class="ChangePartNode" load_steps=3 format=3 uid="uid://csuuwf4doljn4"]

[ext_resource type="Script" path="res://scripts/story_flow/part_change_node.gd" id="1_gkh8o"]
[ext_resource type="Resource" uid="uid://5pbmtnt1rta6" path="res://resources/story/generated/W155.tres" id="1_sfce7"]

[resource]
script = ExtResource("1_gkh8o")
bone_name = "Hips"
part = "Pants_Normal"
replace = true
next = ExtResource("1_sfce7")
next_path_ref = "res://resources/story/generated/W155.tres"
