[gd_resource type="Resource" script_class="ChangePartNode" load_steps=3 format=3 uid="uid://bj15ia0jhh38m"]

[ext_resource type="Resource" uid="uid://do2nxd76ud3e2" path="res://resources/story/generated/partChange236-Arm_L1-Arm_L_Tentacle.tres" id="1_tpa63"]
[ext_resource type="Script" path="res://scripts/story_flow/part_change_node.gd" id="1_vdpmk"]

[resource]
script = ExtResource("1_vdpmk")
bone_name = "Arm_R1"
part = "Arm_R_Tentacle"
replace = true
next = ExtResource("1_tpa63")
next_path_ref = "res://resources/story/generated/partChange236-Arm_L1-Arm_L_Tentacle.tres"
