[gd_resource type="Resource" script_class="ChangePartNode" load_steps=3 format=3 uid="uid://b8yhh51ebni0n"]

[ext_resource type="Resource" uid="uid://dnq4053wnypj4" path="res://resources/story/generated/partChange500-Wing_L-Wing_L_DemonKing.tres" id="1_3p8wn"]
[ext_resource type="Script" path="res://scripts/story_flow/part_change_node.gd" id="1_d1bab"]

[resource]
script = ExtResource("1_d1bab")
bone_name = "Wing_R"
part = "Wing_R_DemonKing"
replace = false
next = ExtResource("1_3p8wn")
next_path_ref = "res://resources/story/generated/partChange500-Wing_L-Wing_L_DemonKing.tres"
