[gd_resource type="Resource" script_class="ChangePartNode" load_steps=3 format=3 uid="uid://bm2yp7eporhne"]

[ext_resource type="Script" path="res://scripts/story_flow/part_change_node.gd" id="1_1jkdb"]
[ext_resource type="Resource" uid="uid://6j6iy5ufooq7" path="res://resources/story/generated/partChange393-Head-Head_Eye.tres" id="1_870ex"]

[resource]
script = ExtResource("1_1jkdb")
bone_name = "Hat"
part = "Hat_Eye"
replace = false
next = ExtResource("1_870ex")
next_path_ref = "res://resources/story/generated/partChange393-Head-Head_Eye.tres"
