[gd_resource type="Resource" script_class="ChangePartNode" load_steps=3 format=3 uid="uid://cle1o05aiangg"]

[ext_resource type="Script" path="res://scripts/story_flow/part_change_node.gd" id="1_2ngty"]
[ext_resource type="Resource" uid="uid://bwspdik4xeojq" path="res://resources/story/generated/W114.tres" id="1_kydia"]

[resource]
script = ExtResource("1_2ngty")
bone_name = "Hat"
part = "Hat_TopHat"
replace = true
next = ExtResource("1_kydia")
next_path_ref = "res://resources/story/generated/W114.tres"
