[gd_resource type="Resource" script_class="ChangePartNode" load_steps=3 format=3 uid="uid://djfmmewnmpbaf"]

[ext_resource type="Script" path="res://scripts/story_flow/part_change_node.gd" id="1_hnm7w"]
[ext_resource type="Resource" uid="uid://yjiurfhpiswx" path="res://resources/story/generated/W118.tres" id="1_vd7ml"]

[resource]
script = ExtResource("1_hnm7w")
bone_name = "Hat"
part = "Hat_Sumo"
replace = true
next = ExtResource("1_vd7ml")
next_path_ref = "res://resources/story/generated/W118.tres"
