[gd_resource type="Resource" script_class="ChangePartNode" load_steps=3 format=3 uid="uid://bdaydp8wtbvmc"]

[ext_resource type="Script" path="res://scripts/story_flow/part_change_node.gd" id="1_oh1f0"]
[ext_resource type="Resource" uid="uid://ctdlmgdci0suu" path="res://resources/story/generated/partChange69-Leg_R-Leg_R_Normal.tres" id="1_ug51w"]

[resource]
script = ExtResource("1_oh1f0")
bone_name = "Head"
part = "Head_Normal"
replace = true
next = ExtResource("1_ug51w")
next_path_ref = "res://resources/story/generated/partChange69-Leg_R-Leg_R_Normal.tres"
