[gd_resource type="Resource" script_class="StoryNode" load_steps=3 format=3 uid="uid://cgaiekb5kwf4f"]

[ext_resource type="Script" path="res://scripts/story_flow/story_node.gd" id="1_848s0"]
[ext_resource type="Resource" uid="uid://csuuwf4doljn4" path="res://resources/story/generated/partChange154-Hips-Pants_Normal.tres" id="1_wbudq"]

[resource]
script = ExtResource("1_848s0")
next = ExtResource("1_wbudq")
next_path_ref = "res://resources/story/generated/partChange154-Hips-Pants_Normal.tres"
