[gd_resource type="Resource" script_class="StoryNode" load_steps=3 format=3 uid="uid://blg5gv04bxfjv"]

[ext_resource type="Script" path="res://scripts/story_flow/story_node.gd" id="1_fte5x"]
[ext_resource type="Resource" uid="uid://bmndvp747snh5" path="res://resources/story/generated/B308-glitchBranch.tres" id="1_rvigf"]

[resource]
script = ExtResource("1_fte5x")
next = ExtResource("1_rvigf")
next_path_ref = "res://resources/story/generated/B308-glitchBranch.tres"
