[gd_resource type="Resource" script_class="InputSegmentNode" load_steps=8 format=3 uid="uid://do2y1arbcq6gj"]

[ext_resource type="Resource" uid="uid://dtxo1ld2nj547" path="res://resources/symbols/f1.tres" id="1_bukp6"]
[ext_resource type="Resource" uid="uid://u4hmlbos3h3a" path="res://resources/symbols/r2.tres" id="2_2rmg0"]
[ext_resource type="Resource" uid="uid://e4i35e0wn2hy" path="res://resources/symbols/r3.tres" id="3_v7obe"]
[ext_resource type="Resource" uid="uid://cl4amk8hff1sk" path="res://resources/symbols/l1.tres" id="4_hwksj"]
[ext_resource type="Resource" uid="uid://b7isqvehiqqtg" path="res://resources/story/generated/L5f.tres" id="5_7bawg"]
[ext_resource type="Script" path="res://scripts/story_flow/input_segment_node.gd" id="5_7of5g"]
[ext_resource type="Resource" uid="uid://cdnx600nyl03f" path="res://resources/story/generated/CheckHair.tres" id="6_gqj2t"]

[resource]
script = ExtResource("5_7of5g")
outputs = Array[Resource("res://scripts/story_flow/story_node.gd")]([ExtResource("6_gqj2t"), ExtResource("5_7bawg")])
outputs_path = Array[String](["CheckHair", "L5f"])
key_list = Array[Resource("res://scripts/gamepay/symbol.gd")]([ExtResource("1_bukp6"), ExtResource("2_2rmg0"), ExtResource("3_v7obe"), ExtResource("4_hwksj")])
next = ExtResource("5_7bawg")
next_path_ref = "res://resources/story/generated/L5f.tres"
