[gd_resource type="Resource" script_class="InputSegmentNode" load_steps=9 format=3 uid="uid://ciowy5tttvbml"]

[ext_resource type="Resource" uid="uid://bg0ow6digf72g" path="res://resources/symbols/r1.tres" id="1_ye44h"]
[ext_resource type="Resource" uid="uid://cid3h4icya8ck" path="res://resources/symbols/l2.tres" id="2_vkayi"]
[ext_resource type="Resource" uid="uid://e4i35e0wn2hy" path="res://resources/symbols/r3.tres" id="3_ss6yu"]
[ext_resource type="Resource" uid="uid://cl4amk8hff1sk" path="res://resources/symbols/l1.tres" id="4_g8aw3"]
[ext_resource type="Resource" uid="uid://dtxo1ld2nj547" path="res://resources/symbols/f1.tres" id="5_so04j"]
[ext_resource type="Resource" uid="uid://cvcrutijv705k" path="res://resources/story/generated/L6f.tres" id="6_i2o5i"]
[ext_resource type="Script" path="res://scripts/story_flow/input_segment_node.gd" id="6_mlyhg"]
[ext_resource type="Resource" uid="uid://c0c2ds0bwck12" path="res://resources/story/generated/L7.tres" id="7_xdx8l"]

[resource]
script = ExtResource("6_mlyhg")
outputs = Array[Resource("res://scripts/story_flow/story_node.gd")]([ExtResource("7_xdx8l"), ExtResource("6_i2o5i")])
outputs_path = Array[String](["L7", "L6f"])
key_list = Array[Resource("res://scripts/gamepay/symbol.gd")]([ExtResource("1_ye44h"), ExtResource("2_vkayi"), ExtResource("3_ss6yu"), ExtResource("4_g8aw3"), ExtResource("5_so04j")])
next = ExtResource("6_i2o5i")
next_path_ref = "res://resources/story/generated/L6f.tres"
