[gd_resource type="Resource" script_class="StoryNode" load_steps=3 format=3 uid="uid://20xph50410aa"]

[ext_resource type="Resource" uid="uid://b5u0negj2k4vp" path="res://resources/story/generated/CheckSumo.tres" id="1_ehs5x"]
[ext_resource type="Script" path="res://scripts/story_flow/story_node.gd" id="1_na0nl"]

[resource]
script = ExtResource("1_na0nl")
next = ExtResource("1_ehs5x")
next_path_ref = "res://resources/story/generated/CheckSumo.tres"
