[gd_resource type="Resource" script_class="InputSegmentNode" load_steps=5 format=3 uid="uid://hjyodrsrp4nk"]

[ext_resource type="Resource" uid="uid://dtxo1ld2nj547" path="res://resources/symbols/f1.tres" id="1_6hypp"]
[ext_resource type="Script" path="res://scripts/story_flow/input_segment_node.gd" id="2_50llk"]
[ext_resource type="Resource" uid="uid://d2nm6olk6qhyy" path="res://resources/story/generated/E0.tres" id="2_lnioa"]
[ext_resource type="Resource" uid="uid://dsdkcdgskvwqv" path="res://resources/story/generated/SpawnedSumo.tres" id="3_143tv"]

[resource]
script = ExtResource("2_50llk")
outputs = Array[Resource("res://scripts/story_flow/story_node.gd")]([ExtResource("3_143tv"), ExtResource("2_lnioa")])
outputs_path = Array[String](["SpawnedSumo", "E0"])
key_list = Array[Resource("res://scripts/gamepay/symbol.gd")]([ExtResource("1_6hypp")])
next = ExtResource("2_lnioa")
next_path_ref = "res://resources/story/generated/E0.tres"
