[gd_resource type="Resource" script_class="InputSegmentNode" load_steps=7 format=3 uid="uid://dooahk1eiapq6"]

[ext_resource type="Resource" uid="uid://ca4pee3eww8mg" path="res://resources/symbols/f2.tres" id="1_21b41"]
[ext_resource type="Resource" uid="uid://dkx12b4fyh6hw" path="res://resources/symbols/u3.tres" id="2_2loal"]
[ext_resource type="Resource" uid="uid://8j6n3oodrxkw" path="res://resources/symbols/d1.tres" id="3_xoghi"]
[ext_resource type="Script" path="res://scripts/story_flow/input_segment_node.gd" id="4_jqpdg"]
[ext_resource type="Resource" uid="uid://bed4ytrtyson8" path="res://resources/story/generated/L17.tres" id="4_plm1w"]
[ext_resource type="Resource" uid="uid://bxa4lttl5pv2f" path="res://resources/story/generated/startGatesFromHellBranch.tres" id="5_3x1wv"]

[resource]
script = ExtResource("4_jqpdg")
outputs = Array[Resource("res://scripts/story_flow/story_node.gd")]([ExtResource("4_plm1w"), ExtResource("5_3x1wv")])
outputs_path = Array[String](["L17", "startGatesFromHellBranch"])
key_list = Array[Resource("res://scripts/gamepay/symbol.gd")]([ExtResource("1_21b41"), ExtResource("2_2loal"), ExtResource("3_xoghi")])
next = ExtResource("4_plm1w")
next_path_ref = "res://resources/story/generated/L17.tres"
