[gd_resource type="Resource" script_class="InputSegmentNode" load_steps=9 format=3 uid="uid://cgd43047biaws"]

[ext_resource type="Resource" uid="uid://cmbx7m3m12fr2" path="res://resources/symbols/f3.tres" id="1_e7vxf"]
[ext_resource type="Resource" uid="uid://u4hmlbos3h3a" path="res://resources/symbols/r2.tres" id="2_qtqgf"]
[ext_resource type="Resource" uid="uid://bg0ow6digf72g" path="res://resources/symbols/r1.tres" id="3_awbqe"]
[ext_resource type="Resource" uid="uid://d2cd2lbco13au" path="res://resources/symbols/b.tres" id="4_6gfyi"]
[ext_resource type="Resource" uid="uid://8j6n3oodrxkw" path="res://resources/symbols/d1.tres" id="5_cwq8s"]
[ext_resource type="Script" path="res://scripts/story_flow/input_segment_node.gd" id="6_61qr0"]
[ext_resource type="Resource" uid="uid://36gf7pod55ro" path="res://resources/story/generated/L19.tres" id="6_xie70"]
[ext_resource type="Resource" uid="uid://bxa4lttl5pv2f" path="res://resources/story/generated/startGatesFromHellBranch.tres" id="7_pqke8"]

[resource]
script = ExtResource("6_61qr0")
outputs = Array[Resource("res://scripts/story_flow/story_node.gd")]([ExtResource("6_xie70"), ExtResource("7_pqke8")])
outputs_path = Array[String](["L19", "startGatesFromHellBranch"])
key_list = Array[Resource("res://scripts/gamepay/symbol.gd")]([ExtResource("1_e7vxf"), ExtResource("2_qtqgf"), ExtResource("3_awbqe"), ExtResource("4_6gfyi"), ExtResource("5_cwq8s")])
next = ExtResource("6_xie70")
next_path_ref = "res://resources/story/generated/L19.tres"
