[gd_resource type="Resource" script_class="InputSegmentNode" load_steps=8 format=3 uid="uid://k08el4qkprsd"]

[ext_resource type="Resource" uid="uid://cid3h4icya8ck" path="res://resources/symbols/l2.tres" id="1_d8l33"]
[ext_resource type="Resource" uid="uid://cl4amk8hff1sk" path="res://resources/symbols/l1.tres" id="2_lmjay"]
[ext_resource type="Resource" uid="uid://ca4pee3eww8mg" path="res://resources/symbols/f2.tres" id="3_g5ece"]
[ext_resource type="Resource" uid="uid://dignxfg13lyi8" path="res://resources/symbols/u1.tres" id="4_ne32j"]
[ext_resource type="Resource" uid="uid://d3lfija0jsrq5" path="res://resources/story/generated/demonKingIsHereSoon.tres" id="5_1cguq"]
[ext_resource type="Script" path="res://scripts/story_flow/input_segment_node.gd" id="5_fk655"]
[ext_resource type="Resource" uid="uid://bxa4lttl5pv2f" path="res://resources/story/generated/startGatesFromHellBranch.tres" id="6_11xst"]

[resource]
script = ExtResource("5_fk655")
outputs = Array[Resource("res://scripts/story_flow/story_node.gd")]([ExtResource("5_1cguq"), ExtResource("6_11xst")])
outputs_path = Array[String](["demonKingIsHereSoon", "startGatesFromHellBranch"])
key_list = Array[Resource("res://scripts/gamepay/symbol.gd")]([ExtResource("1_d8l33"), ExtResource("2_lmjay"), ExtResource("3_g5ece"), ExtResource("4_ne32j"), ExtResource("1_d8l33")])
next = ExtResource("5_1cguq")
next_path_ref = "res://resources/story/generated/demonKingIsHereSoon.tres"
