[gd_resource type="Resource" script_class="InputSegmentNode" load_steps=7 format=3 uid="uid://xl1rv5uybiwy"]

[ext_resource type="Resource" uid="uid://dtxo1ld2nj547" path="res://resources/symbols/f1.tres" id="1_nj1u7"]
[ext_resource type="Resource" uid="uid://ca4pee3eww8mg" path="res://resources/symbols/f2.tres" id="2_wg0ia"]
[ext_resource type="Resource" uid="uid://cmbx7m3m12fr2" path="res://resources/symbols/f3.tres" id="3_bv07j"]
[ext_resource type="Resource" uid="uid://b8mqah1p52bpw" path="res://resources/story/generated/L2s.tres" id="4_8b8j7"]
[ext_resource type="Script" path="res://scripts/story_flow/input_segment_node.gd" id="4_okaqv"]
[ext_resource type="Resource" uid="uid://cfc15ikrgomds" path="res://resources/story/generated/L2f.tres" id="5_jj75j"]

[resource]
script = ExtResource("4_okaqv")
outputs = Array[Resource("res://scripts/story_flow/story_node.gd")]([ExtResource("4_8b8j7"), ExtResource("5_jj75j")])
outputs_path = Array[String](["L2s", "L2f"])
key_list = Array[Resource("res://scripts/gamepay/symbol.gd")]([ExtResource("1_nj1u7"), ExtResource("2_wg0ia"), ExtResource("3_bv07j"), ExtResource("1_nj1u7"), ExtResource("3_bv07j")])
next = ExtResource("4_8b8j7")
next_path_ref = "res://resources/story/generated/L2s.tres"
