[gd_resource type="Resource" script_class="TestBoolNode" load_steps=5 format=3 uid="uid://dbm87so35yanb"]

[ext_resource type="Resource" uid="uid://bxwqy48su2wfc" path="res://resources/story/generated/SumoSucceded.tres" id="1_3p4bp"]
[ext_resource type="Script" path="res://scripts/story_flow/test_bool_node.gd" id="1_wq2vp"]
[ext_resource type="Resource" uid="uid://5hben1doi007" path="res://resources/story/generated/SumoFailed.tres" id="2_7fyrg"]
[ext_resource type="Resource" uid="uid://co64jwxbecjnt" path="res://resources/story/generated_values/FailSumo.tres" id="2_8o4vq"]

[resource]
script = ExtResource("1_wq2vp")
valueRef = ExtResource("2_8o4vq")
outputs = Array[Resource("res://scripts/story_flow/story_node.gd")]([ExtResource("2_7fyrg"), ExtResource("1_3p4bp")])
outputs_path = Array[String](["SumoFailed", "SumoSucceded"])
next = ExtResource("1_3p4bp")
next_path_ref = "res://resources/story/generated/SumoSucceded.tres"
