[gd_resource type="Resource" script_class="TimmedInputSegmentNode" load_steps=8 format=3 uid="uid://cr0ls3uxqfcvo"]

[ext_resource type="Resource" uid="uid://d2cd2lbco13au" path="res://resources/symbols/b.tres" id="1_iolux"]
[ext_resource type="Resource" uid="uid://dtxo1ld2nj547" path="res://resources/symbols/f1.tres" id="2_ueqnu"]
[ext_resource type="Resource" uid="uid://e4i35e0wn2hy" path="res://resources/symbols/r3.tres" id="3_6unkp"]
[ext_resource type="Resource" uid="uid://oxs73d4c5sjq" path="res://resources/symbols/l3.tres" id="4_jh48v"]
[ext_resource type="Script" path="res://scripts/story_flow/timmed_input_segment_node.gd" id="5_x7k6l"]
[ext_resource type="Resource" uid="uid://bvnkv7tamr8mv" path="res://resources/story/generated/L13f.tres" id="5_xkaks"]
[ext_resource type="Resource" uid="uid://pipu8scukbo0" path="res://resources/story/generated/CheckTrainning.tres" id="6_xiw7w"]

[resource]
script = ExtResource("5_x7k6l")
outputs = Array[Resource("res://scripts/story_flow/story_node.gd")]([ExtResource("6_xiw7w"), ExtResource("5_xkaks")])
outputs_path = Array[String](["CheckTrainning", "L13f"])
key_list = Array[Resource("res://scripts/gamepay/symbol.gd")]([ExtResource("1_iolux"), ExtResource("2_ueqnu"), ExtResource("3_6unkp"), ExtResource("4_jh48v"), ExtResource("1_iolux")])
time_in_seconds = 9
next = ExtResource("5_xkaks")
next_path_ref = "res://resources/story/generated/L13f.tres"
