[gd_resource type="Resource" script_class="TimmedInputSegmentNode" load_steps=8 format=3 uid="uid://drid4s0hmotsc"]

[ext_resource type="Resource" uid="uid://cmbx7m3m12fr2" path="res://resources/symbols/f3.tres" id="1_vjtld"]
[ext_resource type="Resource" uid="uid://bg0ow6digf72g" path="res://resources/symbols/r1.tres" id="2_opy2y"]
[ext_resource type="Resource" uid="uid://cl4amk8hff1sk" path="res://resources/symbols/l1.tres" id="3_7luwa"]
[ext_resource type="Resource" uid="uid://d3hi8kesdsm1" path="res://resources/symbols/d2.tres" id="4_ij8gy"]
[ext_resource type="Resource" uid="uid://bjppusg2snxjy" path="res://resources/story/generated/L28.tres" id="5_ewc2k"]
[ext_resource type="Script" path="res://scripts/story_flow/timmed_input_segment_node.gd" id="5_pfxox"]
[ext_resource type="Resource" uid="uid://bxa4lttl5pv2f" path="res://resources/story/generated/startGatesFromHellBranch.tres" id="6_syvqb"]

[resource]
script = ExtResource("5_pfxox")
outputs = Array[Resource("res://scripts/story_flow/story_node.gd")]([ExtResource("5_ewc2k"), ExtResource("6_syvqb")])
outputs_path = Array[String](["L28", "startGatesFromHellBranch"])
key_list = Array[Resource("res://scripts/gamepay/symbol.gd")]([ExtResource("1_vjtld"), ExtResource("2_opy2y"), ExtResource("3_7luwa"), ExtResource("4_ij8gy")])
time_in_seconds = 10
next = ExtResource("5_ewc2k")
next_path_ref = "res://resources/story/generated/L28.tres"
