[gd_resource type="Resource" script_class="TimmedInputSegmentNode" load_steps=9 format=3 uid="uid://c6kxvhaucysv"]

[ext_resource type="Resource" uid="uid://cid3h4icya8ck" path="res://resources/symbols/l2.tres" id="1_08ond"]
[ext_resource type="Resource" uid="uid://cl4amk8hff1sk" path="res://resources/symbols/l1.tres" id="2_lhigw"]
[ext_resource type="Resource" uid="uid://ca4pee3eww8mg" path="res://resources/symbols/f2.tres" id="3_yf7ur"]
[ext_resource type="Resource" uid="uid://dignxfg13lyi8" path="res://resources/symbols/u1.tres" id="4_p5fev"]
[ext_resource type="Resource" uid="uid://d2cd2lbco13au" path="res://resources/symbols/b.tres" id="5_ya7o1"]
[ext_resource type="Resource" uid="uid://bm5bks1v22hvh" path="res://resources/story/generated/E2.tres" id="6_dvgn7"]
[ext_resource type="Script" path="res://scripts/story_flow/timmed_input_segment_node.gd" id="6_sfd12"]
[ext_resource type="Resource" uid="uid://bxa4lttl5pv2f" path="res://resources/story/generated/startGatesFromHellBranch.tres" id="7_cs1de"]

[resource]
script = ExtResource("6_sfd12")
outputs = Array[Resource("res://scripts/story_flow/story_node.gd")]([ExtResource("6_dvgn7"), ExtResource("7_cs1de")])
outputs_path = Array[String](["E2", "startGatesFromHellBranch"])
key_list = Array[Resource("res://scripts/gamepay/symbol.gd")]([ExtResource("1_08ond"), ExtResource("2_lhigw"), ExtResource("3_yf7ur"), ExtResource("4_p5fev"), ExtResource("5_ya7o1")])
time_in_seconds = 8
next = ExtResource("6_dvgn7")
next_path_ref = "res://resources/story/generated/E2.tres"
