{
    "asset": {
        "generator": "FBX2glTF v0.13.1",
        "version": "2.0"
    },
    "scene": 0,
    "buffers": [
        {
            "byteLength": 46960,
            "uri": "buffer.bin"
        }
    ],
    "bufferViews": [
        {
            "buffer": 0,
            "byteLength": 504,
            "byteOffset": 0
        },
        {
            "buffer": 0,
            "byteLength": 1512,
            "byteOffset": 504
        },
        {
            "buffer": 0,
            "byteLength": 2016,
            "byteOffset": 2016
        },
        {
            "buffer": 0,
            "byteLength": 1512,
            "byteOffset": 4032
        },
        {
            "buffer": 0,
            "byteLength": 2016,
            "byteOffset": 5544
        },
        {
            "buffer": 0,
            "byteLength": 1512,
            "byteOffset": 7560
        },
        {
            "buffer": 0,
            "byteLength": 2016,
            "byteOffset": 9072
        },
        {
            "buffer": 0,
            "byteLength": 1512,
            "byteOffset": 11088
        },
        {
            "buffer": 0,
            "byteLength": 2016,
            "byteOffset": 12600
        },
        {
            "buffer": 0,
            "byteLength": 2016,
            "byteOffset": 14616
        },
        {
            "buffer": 0,
            "byteLength": 2016,
            "byteOffset": 16632
        },
        {
            "buffer": 0,
            "byteLength": 2016,
            "byteOffset": 18648
        },
        {
            "buffer": 0,
            "byteLength": 2016,
            "byteOffset": 20664
        },
        {
            "buffer": 0,
            "byteLength": 2016,
            "byteOffset": 22680
        },
        {
            "buffer": 0,
            "byteLength": 2016,
            "byteOffset": 24696
        },
        {
            "buffer": 0,
            "byteLength": 2016,
            "byteOffset": 26712
        },
        {
            "buffer": 0,
            "byteLength": 2016,
            "byteOffset": 28728
        },
        {
            "buffer": 0,
            "byteLength": 2016,
            "byteOffset": 30744
        },
        {
            "buffer": 0,
            "byteLength": 2016,
            "byteOffset": 32760
        },
        {
            "buffer": 0,
            "byteLength": 2016,
            "byteOffset": 34776
        },
        {
            "buffer": 0,
            "byteLength": 124,
            "byteOffset": 36792
        },
        {
            "buffer": 0,
            "byteLength": 372,
            "byteOffset": 36916
        },
        {
            "buffer": 0,
            "byteLength": 496,
            "byteOffset": 37288
        },
        {
            "buffer": 0,
            "byteLength": 372,
            "byteOffset": 37784
        },
        {
            "buffer": 0,
            "byteLength": 496,
            "byteOffset": 38156
        },
        {
            "buffer": 0,
            "byteLength": 372,
            "byteOffset": 38652
        },
        {
            "buffer": 0,
            "byteLength": 496,
            "byteOffset": 39024
        },
        {
            "buffer": 0,
            "byteLength": 372,
            "byteOffset": 39520
        },
        {
            "buffer": 0,
            "byteLength": 496,
            "byteOffset": 39892
        },
        {
            "buffer": 0,
            "byteLength": 496,
            "byteOffset": 40388
        },
        {
            "buffer": 0,
            "byteLength": 496,
            "byteOffset": 40884
        },
        {
            "buffer": 0,
            "byteLength": 496,
            "byteOffset": 41380
        },
        {
            "buffer": 0,
            "byteLength": 496,
            "byteOffset": 41876
        },
        {
            "buffer": 0,
            "byteLength": 372,
            "byteOffset": 42372
        },
        {
            "buffer": 0,
            "byteLength": 496,
            "byteOffset": 42744
        },
        {
            "buffer": 0,
            "byteLength": 496,
            "byteOffset": 43240
        },
        {
            "buffer": 0,
            "byteLength": 496,
            "byteOffset": 43736
        },
        {
            "buffer": 0,
            "byteLength": 372,
            "byteOffset": 44232
        },
        {
            "buffer": 0,
            "byteLength": 496,
            "byteOffset": 44604
        },
        {
            "buffer": 0,
            "byteLength": 372,
            "byteOffset": 45100
        },
        {
            "buffer": 0,
            "byteLength": 496,
            "byteOffset": 45472
        },
        {
            "buffer": 0,
            "byteLength": 496,
            "byteOffset": 45968
        },
        {
            "buffer": 0,
            "byteLength": 496,
            "byteOffset": 46464
        }
    ],
    "scenes": [
        {
            "name": "Root Scene",
            "nodes": [
                0
            ]
        }
    ],
    "accessors": [
        {
            "componentType": 5126,
            "type": "SCALAR",
            "count": 126,
            "bufferView": 0,
            "byteOffset": 0,
            "min": [
                0.0
            ],
            "max": [
                4.16666650772095
            ]
        },
        {
            "componentType": 5126,
            "type": "VEC3",
            "count": 126,
            "bufferView": 1,
            "byteOffset": 0
        },
        {
            "componentType": 5126,
            "type": "VEC4",
            "count": 126,
            "bufferView": 2,
            "byteOffset": 0
        },
        {
            "componentType": 5126,
            "type": "VEC3",
            "count": 126,
            "bufferView": 3,
            "byteOffset": 0
        },
        {
            "componentType": 5126,
            "type": "VEC4",
            "count": 126,
            "bufferView": 4,
            "byteOffset": 0
        },
        {
            "componentType": 5126,
            "type": "VEC3",
            "count": 126,
            "bufferView": 5,
            "byteOffset": 0
        },
        {
            "componentType": 5126,
            "type": "VEC4",
            "count": 126,
            "bufferView": 6,
            "byteOffset": 0
        },
        {
            "componentType": 5126,
            "type": "VEC3",
            "count": 126,
            "bufferView": 7,
            "byteOffset": 0
        },
        {
            "componentType": 5126,
            "type": "VEC4",
            "count": 126,
            "bufferView": 8,
            "byteOffset": 0
        },
        {
            "componentType": 5126,
            "type": "VEC4",
            "count": 126,
            "bufferView": 9,
            "byteOffset": 0
        },
        {
            "componentType": 5126,
            "type": "VEC4",
            "count": 126,
            "bufferView": 10,
            "byteOffset": 0
        },
        {
            "componentType": 5126,
            "type": "VEC4",
            "count": 126,
            "bufferView": 11,
            "byteOffset": 0
        },
        {
            "componentType": 5126,
            "type": "VEC4",
            "count": 126,
            "bufferView": 12,
            "byteOffset": 0
        },
        {
            "componentType": 5126,
            "type": "VEC4",
            "count": 126,
            "bufferView": 13,
            "byteOffset": 0
        },
        {
            "componentType": 5126,
            "type": "VEC4",
            "count": 126,
            "bufferView": 14,
            "byteOffset": 0
        },
        {
            "componentType": 5126,
            "type": "VEC4",
            "count": 126,
            "bufferView": 15,
            "byteOffset": 0
        },
        {
            "componentType": 5126,
            "type": "VEC4",
            "count": 126,
            "bufferView": 16,
            "byteOffset": 0
        },
        {
            "componentType": 5126,
            "type": "VEC4",
            "count": 126,
            "bufferView": 17,
            "byteOffset": 0
        },
        {
            "componentType": 5126,
            "type": "VEC4",
            "count": 126,
            "bufferView": 18,
            "byteOffset": 0
        },
        {
            "componentType": 5126,
            "type": "VEC4",
            "count": 126,
            "bufferView": 19,
            "byteOffset": 0
        },
        {
            "componentType": 5126,
            "type": "SCALAR",
            "count": 31,
            "bufferView": 20,
            "byteOffset": 0,
            "min": [
                0.0
            ],
            "max": [
                1.0
            ]
        },
        {
            "componentType": 5126,
            "type": "VEC3",
            "count": 31,
            "bufferView": 21,
            "byteOffset": 0
        },
        {
            "componentType": 5126,
            "type": "VEC4",
            "count": 31,
            "bufferView": 22,
            "byteOffset": 0
        },
        {
            "componentType": 5126,
            "type": "VEC3",
            "count": 31,
            "bufferView": 23,
            "byteOffset": 0
        },
        {
            "componentType": 5126,
            "type": "VEC4",
            "count": 31,
            "bufferView": 24,
            "byteOffset": 0
        },
        {
            "componentType": 5126,
            "type": "VEC3",
            "count": 31,
            "bufferView": 25,
            "byteOffset": 0
        },
        {
            "componentType": 5126,
            "type": "VEC4",
            "count": 31,
            "bufferView": 26,
            "byteOffset": 0
        },
        {
            "componentType": 5126,
            "type": "VEC3",
            "count": 31,
            "bufferView": 27,
            "byteOffset": 0
        },
        {
            "componentType": 5126,
            "type": "VEC4",
            "count": 31,
            "bufferView": 28,
            "byteOffset": 0
        },
        {
            "componentType": 5126,
            "type": "VEC4",
            "count": 31,
            "bufferView": 29,
            "byteOffset": 0
        },
        {
            "componentType": 5126,
            "type": "VEC4",
            "count": 31,
            "bufferView": 30,
            "byteOffset": 0
        },
        {
            "componentType": 5126,
            "type": "VEC4",
            "count": 31,
            "bufferView": 31,
            "byteOffset": 0
        },
        {
            "componentType": 5126,
            "type": "VEC4",
            "count": 31,
            "bufferView": 32,
            "byteOffset": 0
        },
        {
            "componentType": 5126,
            "type": "VEC3",
            "count": 31,
            "bufferView": 33,
            "byteOffset": 0
        },
        {
            "componentType": 5126,
            "type": "VEC4",
            "count": 31,
            "bufferView": 34,
            "byteOffset": 0
        },
        {
            "componentType": 5126,
            "type": "VEC4",
            "count": 31,
            "bufferView": 35,
            "byteOffset": 0
        },
        {
            "componentType": 5126,
            "type": "VEC4",
            "count": 31,
            "bufferView": 36,
            "byteOffset": 0
        },
        {
            "componentType": 5126,
            "type": "VEC3",
            "count": 31,
            "bufferView": 37,
            "byteOffset": 0
        },
        {
            "componentType": 5126,
            "type": "VEC4",
            "count": 31,
            "bufferView": 38,
            "byteOffset": 0
        },
        {
            "componentType": 5126,
            "type": "VEC3",
            "count": 31,
            "bufferView": 39,
            "byteOffset": 0
        },
        {
            "componentType": 5126,
            "type": "VEC4",
            "count": 31,
            "bufferView": 40,
            "byteOffset": 0
        },
        {
            "componentType": 5126,
            "type": "VEC4",
            "count": 31,
            "bufferView": 41,
            "byteOffset": 0
        },
        {
            "componentType": 5126,
            "type": "VEC4",
            "count": 31,
            "bufferView": 42,
            "byteOffset": 0
        }
    ],
    "samplers": [
        {}
    ],
    "skins": [
        {
            "joints": [
                11,
                12,
                13,
                14,
                15,
                16,
                17,
                18,
                19,
                20,
                21,
                22,
                23,
                24,
                25,
                26,
                27,
                28,
                29,
                30,
                31,
                32,
                33,
                34,
                35,
                36,
                37,
                38,
                39,
                40
            ]
        }
    ],
    "animations": [
        {
            "name": "Idle",
            "channels": [
                {
                    "sampler": 0,
                    "target": {
                        "node": 2,
                        "path": "translation"
                    }
                },
                {
                    "sampler": 1,
                    "target": {
                        "node": 2,
                        "path": "rotation"
                    }
                },
                {
                    "sampler": 2,
                    "target": {
                        "node": 3,
                        "path": "translation"
                    }
                },
                {
                    "sampler": 3,
                    "target": {
                        "node": 3,
                        "path": "rotation"
                    }
                },
                {
                    "sampler": 4,
                    "target": {
                        "node": 4,
                        "path": "translation"
                    }
                },
                {
                    "sampler": 5,
                    "target": {
                        "node": 4,
                        "path": "rotation"
                    }
                },
                {
                    "sampler": 6,
                    "target": {
                        "node": 12,
                        "path": "translation"
                    }
                },
                {
                    "sampler": 7,
                    "target": {
                        "node": 12,
                        "path": "rotation"
                    }
                },
                {
                    "sampler": 8,
                    "target": {
                        "node": 13,
                        "path": "rotation"
                    }
                },
                {
                    "sampler": 9,
                    "target": {
                        "node": 15,
                        "path": "rotation"
                    }
                },
                {
                    "sampler": 10,
                    "target": {
                        "node": 16,
                        "path": "rotation"
                    }
                },
                {
                    "sampler": 11,
                    "target": {
                        "node": 19,
                        "path": "rotation"
                    }
                },
                {
                    "sampler": 12,
                    "target": {
                        "node": 24,
                        "path": "rotation"
                    }
                },
                {
                    "sampler": 13,
                    "target": {
                        "node": 26,
                        "path": "rotation"
                    }
                },
                {
                    "sampler": 14,
                    "target": {
                        "node": 28,
                        "path": "rotation"
                    }
                },
                {
                    "sampler": 15,
                    "target": {
                        "node": 31,
                        "path": "rotation"
                    }
                },
                {
                    "sampler": 16,
                    "target": {
                        "node": 34,
                        "path": "rotation"
                    }
                },
                {
                    "sampler": 17,
                    "target": {
                        "node": 37,
                        "path": "rotation"
                    }
                },
                {
                    "sampler": 18,
                    "target": {
                        "node": 39,
                        "path": "rotation"
                    }
                }
            ],
            "samplers": [
                {
                    "input": 0,
                    "interpolation": "LINEAR",
                    "output": 1
                },
                {
                    "input": 0,
                    "interpolation": "LINEAR",
                    "output": 2
                },
                {
                    "input": 0,
                    "interpolation": "LINEAR",
                    "output": 3
                },
                {
                    "input": 0,
                    "interpolation": "LINEAR",
                    "output": 4
                },
                {
                    "input": 0,
                    "interpolation": "LINEAR",
                    "output": 5
                },
                {
                    "input": 0,
                    "interpolation": "LINEAR",
                    "output": 6
                },
                {
                    "input": 0,
                    "interpolation": "LINEAR",
                    "output": 7
                },
                {
                    "input": 0,
                    "interpolation": "LINEAR",
                    "output": 8
                },
                {
                    "input": 0,
                    "interpolation": "LINEAR",
                    "output": 9
                },
                {
                    "input": 0,
                    "interpolation": "LINEAR",
                    "output": 10
                },
                {
                    "input": 0,
                    "interpolation": "LINEAR",
                    "output": 11
                },
                {
                    "input": 0,
                    "interpolation": "LINEAR",
                    "output": 12
                },
                {
                    "input": 0,
                    "interpolation": "LINEAR",
                    "output": 13
                },
                {
                    "input": 0,
                    "interpolation": "LINEAR",
                    "output": 14
                },
                {
                    "input": 0,
                    "interpolation": "LINEAR",
                    "output": 15
                },
                {
                    "input": 0,
                    "interpolation": "LINEAR",
                    "output": 16
                },
                {
                    "input": 0,
                    "interpolation": "LINEAR",
                    "output": 17
                },
                {
                    "input": 0,
                    "interpolation": "LINEAR",
                    "output": 18
                },
                {
                    "input": 0,
                    "interpolation": "LINEAR",
                    "output": 19
                }
            ]
        },
        {
            "name": "Levitate",
            "channels": [
                {
                    "sampler": 0,
                    "target": {
                        "node": 2,
                        "path": "translation"
                    }
                },
                {
                    "sampler": 1,
                    "target": {
                        "node": 2,
                        "path": "rotation"
                    }
                },
                {
                    "sampler": 2,
                    "target": {
                        "node": 3,
                        "path": "translation"
                    }
                },
                {
                    "sampler": 3,
                    "target": {
                        "node": 3,
                        "path": "rotation"
                    }
                },
                {
                    "sampler": 4,
                    "target": {
                        "node": 4,
                        "path": "translation"
                    }
                },
                {
                    "sampler": 5,
                    "target": {
                        "node": 4,
                        "path": "rotation"
                    }
                },
                {
                    "sampler": 6,
                    "target": {
                        "node": 12,
                        "path": "translation"
                    }
                },
                {
                    "sampler": 7,
                    "target": {
                        "node": 12,
                        "path": "rotation"
                    }
                },
                {
                    "sampler": 8,
                    "target": {
                        "node": 13,
                        "path": "rotation"
                    }
                },
                {
                    "sampler": 9,
                    "target": {
                        "node": 15,
                        "path": "rotation"
                    }
                },
                {
                    "sampler": 10,
                    "target": {
                        "node": 16,
                        "path": "rotation"
                    }
                },
                {
                    "sampler": 11,
                    "target": {
                        "node": 19,
                        "path": "rotation"
                    }
                },
                {
                    "sampler": 12,
                    "target": {
                        "node": 22,
                        "path": "translation"
                    }
                },
                {
                    "sampler": 13,
                    "target": {
                        "node": 24,
                        "path": "rotation"
                    }
                },
                {
                    "sampler": 14,
                    "target": {
                        "node": 26,
                        "path": "rotation"
                    }
                },
                {
                    "sampler": 15,
                    "target": {
                        "node": 28,
                        "path": "rotation"
                    }
                },
                {
                    "sampler": 16,
                    "target": {
                        "node": 31,
                        "path": "translation"
                    }
                },
                {
                    "sampler": 17,
                    "target": {
                        "node": 31,
                        "path": "rotation"
                    }
                },
                {
                    "sampler": 18,
                    "target": {
                        "node": 34,
                        "path": "translation"
                    }
                },
                {
                    "sampler": 19,
                    "target": {
                        "node": 34,
                        "path": "rotation"
                    }
                },
                {
                    "sampler": 20,
                    "target": {
                        "node": 37,
                        "path": "rotation"
                    }
                },
                {
                    "sampler": 21,
                    "target": {
                        "node": 39,
                        "path": "rotation"
                    }
                }
            ],
            "samplers": [
                {
                    "input": 20,
                    "interpolation": "LINEAR",
                    "output": 21
                },
                {
                    "input": 20,
                    "interpolation": "LINEAR",
                    "output": 22
                },
                {
                    "input": 20,
                    "interpolation": "LINEAR",
                    "output": 23
                },
                {
                    "input": 20,
                    "interpolation": "LINEAR",
                    "output": 24
                },
                {
                    "input": 20,
                    "interpolation": "LINEAR",
                    "output": 25
                },
                {
                    "input": 20,
                    "interpolation": "LINEAR",
                    "output": 26
                },
                {
                    "input": 20,
                    "interpolation": "LINEAR",
                    "output": 27
                },
                {
                    "input": 20,
                    "interpolation": "LINEAR",
                    "output": 28
                },
                {
                    "input": 20,
                    "interpolation": "LINEAR",
                    "output": 29
                },
                {
                    "input": 20,
                    "interpolation": "LINEAR",
                    "output": 30
                },
                {
                    "input": 20,
                    "interpolation": "LINEAR",
                    "output": 31
                },
                {
                    "input": 20,
                    "interpolation": "LINEAR",
                    "output": 32
                },
                {
                    "input": 20,
                    "interpolation": "LINEAR",
                    "output": 33
                },
                {
                    "input": 20,
                    "interpolation": "LINEAR",
                    "output": 34
                },
                {
                    "input": 20,
                    "interpolation": "LINEAR",
                    "output": 35
                },
                {
                    "input": 20,
                    "interpolation": "LINEAR",
                    "output": 36
                },
                {
                    "input": 20,
                    "interpolation": "LINEAR",
                    "output": 37
                },
                {
                    "input": 20,
                    "interpolation": "LINEAR",
                    "output": 38
                },
                {
                    "input": 20,
                    "interpolation": "LINEAR",
                    "output": 39
                },
                {
                    "input": 20,
                    "interpolation": "LINEAR",
                    "output": 40
                },
                {
                    "input": 20,
                    "interpolation": "LINEAR",
                    "output": 41
                },
                {
                    "input": 20,
                    "interpolation": "LINEAR",
                    "output": 42
                }
            ]
        }
    ],
    "nodes": [
        {
            "name": "RootNode",
            "translation": [
                0.0,
                0.0,
                0.0
            ],
            "rotation": [
                0.0,
                0.0,
                0.0,
                1.0
            ],
            "scale": [
                1.0,
                1.0,
                1.0
            ],
            "children": [
                1,
                11
            ]
        },
        {
            "name": "Sumo_ctrl",
            "translation": [
                0.0,
                0.0,
                0.0
            ],
            "rotation": [
                0.0,
                0.0,
                0.0,
                1.0
            ],
            "scale": [
                1.0,
                1.0,
                1.0
            ],
            "children": [
                2
            ]
        },
        {
            "name": "Hips_ctrl",
            "translation": [
                0.0,
                0.076496809720993,
                0.0664401054382324
            ],
            "rotation": [
                -0.0577392466366291,
                -0.0,
                0.0,
                0.998331725597382
            ],
            "scale": [
                1.0,
                1.0,
                1.0
            ],
            "children": [
                3,
                10
            ]
        },
        {
            "name": "Chest_ctrl",
            "translation": [
                0.0,
                0.00511265033856034,
                -0.071847066283226
            ],
            "rotation": [
                0.0399162471294403,
                0.0,
                0.0,
                0.999203026294708
            ],
            "scale": [
                1.0,
                1.0,
                1.0
            ],
            "children": [
                4,
                5,
                6,
                7,
                8,
                9
            ]
        },
        {
            "name": "Neck_ctrl",
            "translation": [
                0.0,
                -3.41942381965055e-06,
                0.000142019838676788
            ],
            "rotation": [
                -6.10684655839577e-05,
                -0.0,
                0.0,
                1.0
            ],
            "scale": [
                1.0,
                1.0,
                1.0
            ]
        },
        {
            "name": "Wing_L_ctrl",
            "translation": [
                0.0,
                0.0,
                0.0
            ],
            "rotation": [
                3.46944695195361e-18,
                0.0,
                0.0,
                1.0
            ],
            "scale": [
                1.0,
                1.0,
                1.0
            ]
        },
        {
            "name": "Wing_R_ctrl",
            "translation": [
                0.0,
                0.0,
                0.0
            ],
            "rotation": [
                3.46944695195361e-18,
                0.0,
                0.0,
                1.0
            ],
            "scale": [
                1.0,
                1.0,
                1.0
            ]
        },
        {
            "name": "ChestFront",
            "translation": [
                0.0,
                0.0,
                0.0
            ],
            "rotation": [
                3.46944695195361e-18,
                0.0,
                0.0,
                1.0
            ],
            "scale": [
                1.0,
                1.0,
                1.0
            ]
        },
        {
            "name": "Shoulder2_R_ctrl",
            "translation": [
                0.0,
                0.135813385248184,
                -0.205003157258034
            ],
            "rotation": [
                3.46944695195361e-18,
                0.0,
                0.0,
                1.0
            ],
            "scale": [
                1.0,
                1.0,
                1.0
            ]
        },
        {
            "name": "Shoulder2_L_ctrl",
            "translation": [
                0.0,
                0.135813385248184,
                -0.205003157258034
            ],
            "rotation": [
                3.46944695195361e-18,
                0.0,
                0.0,
                1.0
            ],
            "scale": [
                1.0,
                1.0,
                1.0
            ]
        },
        {
            "name": "Tail_ctrl",
            "translation": [
                0.0,
                0.0,
                0.0
            ],
            "rotation": [
                0.0,
                0.0,
                0.0,
                1.0
            ],
            "scale": [
                1.0,
                1.0,
                1.0
            ]
        },
        {
            "name": "Root",
            "translation": [
                0.0,
                0.0,
                0.0
            ],
            "rotation": [
                0.0,
                0.0,
                0.70710676908493,
                0.70710676908493
            ],
            "scale": [
                1.0,
                1.0,
                1.0
            ],
            "children": [
                12
            ]
        },
        {
            "name": "Hips",
            "translation": [
                0.652998924255371,
                0.0,
                0.0534746386110783
            ],
            "rotation": [
                0.518308341503143,
                0.851727068424225,
                -0.0735379979014397,
                -0.0225749611854553
            ],
            "scale": [
                1.0,
                1.0,
                1.0
            ],
            "children": [
                13,
                15,
                37,
                39
            ]
        },
        {
            "name": "Leg_R",
            "translation": [
                0.35255166888237,
                0.0,
                -7.10542719878232e-17
            ],
            "rotation": [
                0.724905252456665,
                -0.12470119446516,
                -0.626984536647797,
                -0.256617248058319
            ],
            "scale": [
                1.0,
                1.0,
                1.0
            ],
            "children": [
                14
            ]
        },
        {
            "name": "Feet_R",
            "translation": [
                -0.125622108578682,
                0.0956026986241341,
                -0.266636729240417
            ],
            "rotation": [
                -0.700530052185059,
                0.71362292766571,
                4.07613992525267e-17,
                1.28931808280583e-16
            ],
            "scale": [
                1.0,
                1.0,
                1.0
            ]
        },
        {
            "name": "Chest",
            "translation": [
                -0.146528303623199,
                0.293084710836411,
                0.0253831595182419
            ],
            "rotation": [
                -0.0430210195481777,
                0.048323892056942,
                0.39778608083725,
                0.915194094181061
            ],
            "scale": [
                1.0,
                1.0,
                1.0
            ],
            "children": [
                16,
                19,
                22,
                24,
                26,
                28,
                31,
                34
            ]
        },
        {
            "name": "Arm_R_1",
            "translation": [
                0.373665928840637,
                0.0325746014714241,
                0.0130222849547863
            ],
            "rotation": [
                0.697194218635559,
                0.291795611381531,
                0.600593030452728,
                -0.260889917612076
            ],
            "scale": [
                1.0,
                1.0,
                1.0
            ],
            "children": [
                17
            ]
        },
        {
            "name": "Wrist_R_1",
            "translation": [
                -0.38211652636528,
                0.388981997966766,
                -0.0706781893968582
            ],
            "rotation": [
                0.117020592093468,
                0.536626577377319,
                0.835185885429382,
                0.0283312443643808
            ],
            "scale": [
                1.0,
                1.0,
                1.0
            ],
            "children": [
                18
            ]
        },
        {
            "name": "Hand_R_1",
            "translation": [
                0.134236574172974,
                -0.0409148968756199,
                0.000336071127094328
            ],
            "rotation": [
                0.221394777297974,
                0.50263923406601,
                0.812872409820557,
                -0.193846881389618
            ],
            "scale": [
                1.0,
                1.0,
                1.0
            ]
        },
        {
            "name": "Neck",
            "translation": [
                0.0881152674555779,
                0.245651692152023,
                4.44089209850063e-16
            ],
            "rotation": [
                0.815267860889435,
                0.579084038734436,
                5.00970381835941e-05,
                -3.49234105669893e-05
            ],
            "scale": [
                1.0,
                1.0,
                1.0
            ],
            "children": [
                20
            ]
        },
        {
            "name": "Head",
            "translation": [
                0.254895091056824,
                0.00224758498370647,
                -1.77635679969558e-17
            ],
            "rotation": [
                2.66226605926932e-21,
                5.55117004791846e-17,
                0.00440871482715011,
                0.999990284442902
            ],
            "scale": [
                1.0,
                1.0,
                1.0
            ],
            "children": [
                21
            ]
        },
        {
            "name": "HeadTip",
            "translation": [
                0.242302790284157,
                2.13219072186057e-15,
                -7.5495166468604e-17
            ],
            "rotation": [
                0.901648938655853,
                0.432468771934509,
                2.64810739257807e-17,
                5.52100740319008e-17
            ],
            "scale": [
                1.0,
                1.0,
                1.0
            ]
        },
        {
            "name": "ChestFront",
            "translation": [
                0.0174975898116827,
                0.0487805679440498,
                -0.315020024776459
            ],
            "rotation": [
                0.14392563700676,
                0.69230443239212,
                -0.0982730314135551,
                0.700244545936584
            ],
            "scale": [
                1.0,
                1.0,
                1.0
            ],
            "children": [
                23
            ]
        },
        {
            "name": "ChestFrontTip",
            "translation": [
                0.0971211418509483,
                0.0,
                9.06396986664822e-17
            ],
            "rotation": [
                -0.14392563700676,
                -0.69230443239212,
                0.0982730314135551,
                0.700244545936584
            ],
            "scale": [
                1.0,
                1.0,
                1.0
            ]
        },
        {
            "name": "Wing_R",
            "translation": [
                0.194645762443542,
                -0.00477023283019662,
                0.280661255121231
            ],
            "rotation": [
                -0.172974318265915,
                -0.694105386734009,
                0.142121538519859,
                0.68417763710022
            ],
            "scale": [
                1.0,
                1.0,
                1.0
            ],
            "children": [
                25
            ]
        },
        {
            "name": "WingTip_R",
            "translation": [
                0.56930536031723,
                0.0410617925226688,
                -0.667879164218903
            ],
            "rotation": [
                0.285038620233536,
                0.647111237049103,
                -0.049812164157629,
                0.70535010099411
            ],
            "scale": [
                1.0,
                1.0,
                1.0
            ]
        },
        {
            "name": "Wing_L",
            "translation": [
                -0.153299331665039,
                0.120037265121937,
                0.2806616127491
            ],
            "rotation": [
                -0.602088868618011,
                0.357199877500534,
                0.711942970752716,
                0.055085975676775
            ],
            "scale": [
                1.0,
                1.0,
                1.0
            ],
            "children": [
                27
            ]
        },
        {
            "name": "WingTip_L",
            "translation": [
                -0.569302618503571,
                -0.0410582199692726,
                0.667878985404968
            ],
            "rotation": [
                0.285038620233536,
                0.647111237049103,
                -0.049812164157629,
                0.70535010099411
            ],
            "scale": [
                1.0,
                1.0,
                1.0
            ]
        },
        {
            "name": "Arm_L_1",
            "translation": [
                -0.267766773700714,
                0.262656658887863,
                0.013022325001657
            ],
            "rotation": [
                0.448351442813873,
                0.477238416671753,
                -0.510058224201202,
                0.557732045650482
            ],
            "scale": [
                1.0,
                1.0,
                1.0
            ],
            "children": [
                29
            ]
        },
        {
            "name": "Wrist_L_1",
            "translation": [
                0.382116943597794,
                -0.388981610536575,
                0.0706785246729851
            ],
            "rotation": [
                0.117020592093468,
                0.536626577377319,
                0.835185885429382,
                0.0283312443643808
            ],
            "scale": [
                1.0,
                1.0,
                1.0
            ],
            "children": [
                30
            ]
        },
        {
            "name": "Hand_L_1",
            "translation": [
                -0.134236320853233,
                0.0409149974584579,
                -0.000335876538883895
            ],
            "rotation": [
                0.221394777297974,
                0.50263923406601,
                0.812872409820557,
                -0.193846881389618
            ],
            "scale": [
                1.0,
                1.0,
                1.0
            ]
        },
        {
            "name": "Arm_L_2",
            "translation": [
                -0.221911296248436,
                0.390494674444199,
                0.218025222420692
            ],
            "rotation": [
                0.632112443447113,
                0.482156604528427,
                -0.492701888084412,
                0.35384139418602
            ],
            "scale": [
                1.0,
                1.0,
                1.0
            ],
            "children": [
                32
            ]
        },
        {
            "name": "Wrist_L_2",
            "translation": [
                0.382116943597794,
                -0.388981610536575,
                0.0706785246729851
            ],
            "rotation": [
                0.117020592093468,
                0.536626577377319,
                0.835185885429382,
                0.0283312443643808
            ],
            "scale": [
                1.0,
                1.0,
                1.0
            ],
            "children": [
                33
            ]
        },
        {
            "name": "Hand_L_2",
            "translation": [
                -0.134236320853233,
                0.0409149974584579,
                -0.000335876538883895
            ],
            "rotation": [
                0.221394777297974,
                0.50263923406601,
                0.812872409820557,
                -0.193846881389618
            ],
            "scale": [
                1.0,
                1.0,
                1.0
            ]
        },
        {
            "name": "Arm_R_2",
            "translation": [
                0.419521391391754,
                0.160412594676018,
                0.218025177717209
            ],
            "rotation": [
                0.481500118970871,
                0.378351539373398,
                0.674912691116333,
                -0.411704570055008
            ],
            "scale": [
                1.0,
                1.0,
                1.0
            ],
            "children": [
                35
            ]
        },
        {
            "name": "Wrist_R_2",
            "translation": [
                -0.38211652636528,
                0.388981997966766,
                -0.0706781893968582
            ],
            "rotation": [
                0.117020592093468,
                0.536626577377319,
                0.835185885429382,
                0.0283312443643808
            ],
            "scale": [
                1.0,
                1.0,
                1.0
            ],
            "children": [
                36
            ]
        },
        {
            "name": "Hand_R_2",
            "translation": [
                0.134236574172974,
                -0.0409148968756199,
                0.000336071127094328
            ],
            "rotation": [
                0.221394777297974,
                0.50263923406601,
                0.812872409820557,
                -0.193846881389618
            ],
            "scale": [
                1.0,
                1.0,
                1.0
            ]
        },
        {
            "name": "Leg_L",
            "translation": [
                -0.201245456933975,
                -0.282384753227234,
                0.0636554285883904
            ],
            "rotation": [
                0.519276022911072,
                -0.352822065353394,
                0.399372488260269,
                0.668109714984894
            ],
            "scale": [
                1.0,
                1.0,
                1.0
            ],
            "children": [
                38
            ]
        },
        {
            "name": "Feet_L",
            "translation": [
                0.12562170624733,
                -0.0956028923392296,
                0.266637116670609
            ],
            "rotation": [
                -0.700530052185059,
                0.71362292766571,
                1.58492669187162e-17,
                1.03554079141023e-16
            ],
            "scale": [
                1.0,
                1.0,
                1.0
            ]
        },
        {
            "name": "Tail",
            "translation": [
                0.0767193809151649,
                -0.0784781575202942,
                0.319311499595642
            ],
            "rotation": [
                0.0414650067687035,
                -0.669002950191498,
                0.292901426553726,
                0.681853711605072
            ],
            "scale": [
                1.0,
                1.0,
                1.0
            ],
            "children": [
                40
            ]
        },
        {
            "name": "TailTip",
            "translation": [
                0.965012788772583,
                -1.42108543975646e-16,
                -1.43773876924397e-16
            ],
            "rotation": [
                -0.00876403972506523,
                0.70705246925354,
                -0.246479719877243,
                0.662757694721222
            ],
            "scale": [
                1.0,
                1.0,
                1.0
            ]
        }
    ]
}