[gd_resource type="ShaderMaterial" load_steps=2 format=3 uid="uid://b54sr8nnd5vmc"]

[ext_resource type="Shader" uid="uid://ca317p8cpb37j" path="res://fader/fader.tres" id="1_ptvq2"]

[resource]
shader = ExtResource("1_ptvq2")
shader_parameter/alpha = 0.0
