[gd_scene load_steps=4 format=3 uid="uid://b288hv1gfjixp"]

[ext_resource type="FontFile" uid="uid://cif0vul6undps" path="res://fonts/JAPAB___.TTF" id="1_eihyv"]
[ext_resource type="Script" path="res://scripts/ui/button_3d.gd" id="2_1k0uq"]

[sub_resource type="BoxShape3D" id="BoxShape3D_xa0b1"]
size = Vector3(0.465698, 0.230286, 0.0107422)

[node name="Button" type="Label3D"]
pixel_size = 0.002
modulate = Color(0.470588, 0.470588, 0.470588, 1)
text = "Back"
font = ExtResource("1_eihyv")
font_size = 50
script = ExtResource("2_1k0uq")

[node name="Area3D" type="Area3D" parent="."]

[node name="CollisionShape3D" type="CollisionShape3D" parent="Area3D"]
transform = Transform3D(0.999998, 0, 2.08616e-07, 0, 1, 0, -2.08616e-07, 0, 0.999998, 0, 0, 0)
shape = SubResource("BoxShape3D_xa0b1")

[connection signal="mouse_entered" from="Area3D" to="." method="mouse_entered"]
[connection signal="mouse_exited" from="Area3D" to="." method="mouse_exited"]
