[gd_scene load_steps=7 format=3 uid="uid://bmvijlmjyuy15"]

[ext_resource type="PackedScene" uid="uid://c5egxuv2mmfcm" path="res://art/master/Master_Anim.glb" id="1_psqof"]
[ext_resource type="Script" path="res://scripts/story_flow/events_handler/master_set_anim.gd" id="2_4lat3"]
[ext_resource type="Resource" uid="uid://cffp0adclk36i" path="res://resources/story/generated_events/masterSetAnim.tres" id="3_cgn7c"]
[ext_resource type="Script" path="res://scripts/story_flow/events_handler/master_talking_event.gd" id="4_kvj5i"]
[ext_resource type="Resource" uid="uid://ctp1vb7jx2pe8" path="res://resources/events/masterStartTalking.tres" id="5_5jkhj"]
[ext_resource type="Resource" uid="uid://jy5y6t6s10cy" path="res://resources/events/masterStopTalking.tres" id="6_dpevr"]

[node name="MasterAnim" instance=ExtResource("1_psqof")]

[node name="RootNode" parent="." index="0"]
transform = Transform3D(1.5, 0, 0, 0, 1.5, 0, 0, 0, 1.5, 0, 0, 0)

[node name="Skeleton3D" parent="RootNode" index="1"]
bones/0/rotation = Quaternion(0.707107, 0.707107, 4.32978e-17, 4.32978e-17)
bones/1/position = Vector3(0.548933, 1.01739e-17, 7.07528e-17)
bones/1/rotation = Quaternion(-6.12323e-17, -6.12323e-17, 1.07775e-33, 1)
bones/3/rotation = Quaternion(-6.12323e-17, -6.12323e-17, 2.71712e-33, 1)
bones/4/rotation = Quaternion(0.707107, 0.707107, 4.32978e-17, 4.32978e-17)
bones/6/rotation = Quaternion(0.0351918, 0.706231, -0.706231, -0.0351918)
bones/7/rotation = Quaternion(0.0351918, 0.706231, -0.706231, -0.0351918)
bones/8/position = Vector3(0.330727, 2.54486e-16, -0.10189)
bones/12/position = Vector3(0.330727, 2.54486e-16, -0.292259)
bones/14/position = Vector3(0.330727, 4.26054e-17, -0.0940056)
bones/15/rotation = Quaternion(-0.105983, 0.0294763, 0.926749, -0.359215)
bones/15/scale = Vector3(1, 1, 1)
bones/16/rotation = Quaternion(0.617965, -0.777319, 0.00298923, 0.11784)
bones/16/scale = Vector3(1, 1, 1)
bones/17/rotation = Quaternion(0.518804, 0.84255, 0.133307, -0.0563977)
bones/17/scale = Vector3(1, 1, 1)
bones/18/rotation = Quaternion(0.921341, -0.371178, 0.111924, -0.0288269)
bones/18/scale = Vector3(1, 1, 1)
bones/19/rotation = Quaternion(-0.607284, 0.784458, 0.00505404, -0.12572)
bones/19/scale = Vector3(1, 1, 1)
bones/20/rotation = Quaternion(0.515876, 0.841331, 0.148887, -0.0621845)
bones/21/rotation = Quaternion(-0.10213, -0.161669, 0.978937, -0.0715135)
bones/21/scale = Vector3(1, 1, 1)
bones/22/rotation = Quaternion(0.967691, -0.165604, 0.189777, 0.0116213)
bones/22/scale = Vector3(1, 1, 1)
bones/23/rotation = Quaternion(0.0365122, 0.999333, 6.10965e-17, 4.83608e-18)
bones/23/scale = Vector3(1, 1, 1)
bones/24/rotation = Quaternion(0.980243, -0.0688921, 0.102605, 0.154435)
bones/25/rotation = Quaternion(0.967909, -0.162656, 0.191279, 0.0103635)
bones/25/scale = Vector3(1, 1, 1)
bones/26/rotation = Quaternion(0.0365122, 0.999333, 2.18373e-08, 4.71182e-10)
bones/26/scale = Vector3(1, 1, 1)

[node name="Hips_ctrl" parent="RootNode/Master_ctrl" index="0"]
transform = Transform3D(1, 0, 0, 0, 1, 0, 0, 0, 1, 0, -0.0314446, 0)

[node name="Hand_L_ctrl" parent="RootNode/Master_ctrl" index="1"]
transform = Transform3D(1, 0, 0, 0, 1, 0, 0, 0, 1, 0, 0.131154, 0)

[node name="Hand_R_ctrl" parent="RootNode/Master_ctrl" index="2"]
transform = Transform3D(1, 0, 0, 0, 1, 0, 0, 0, 1, 0, 0.131154, 0)

[node name="AnimationPlayer" parent="." index="1"]
autoplay = "Serious"

[node name="EventMasterSetAnim" type="Node" parent="." index="2" node_paths=PackedStringArray("anim_player")]
script = ExtResource("2_4lat3")
anim_player = NodePath("../AnimationPlayer")
event = ExtResource("3_cgn7c")

[node name="EventMasterTalk" type="Node" parent="." index="3" node_paths=PackedStringArray("skeleton")]
script = ExtResource("4_kvj5i")
startTalking = ExtResource("5_5jkhj")
stopTalking = ExtResource("6_dpevr")
skeleton = NodePath("../RootNode/Skeleton3D")
max_scale_x = 0.2
max_scale_z = 0.1
scale_time = 0.2
