[gd_resource type="Resource" script_class="GameEventAny" load_steps=2 format=3 uid="uid://cedidl8dnp5a1"]

[ext_resource type="Script" path="res://scripts/game_events/game_event_any.gd" id="1_d2ie3"]

[resource]
script = ExtResource("1_d2ie3")
