[gd_resource type="Resource" script_class="EventPartChange" load_steps=2 format=3 uid="uid://dhbigsuxe5nfx"]

[ext_resource type="Script" path="res://scripts/game_events/event_part_change.gd" id="1_00o8s"]

[resource]
script = ExtResource("1_00o8s")
