[gd_resource type="StandardMaterial3D" load_steps=2 format=3 uid="uid://vqsepf0lwrqo"]

[ext_resource type="Texture2D" uid="uid://o15xirkgjt5y" path="res://art/sumo/face/Sumo_Eyes_Googly.png" id="1_a2uf4"]

[resource]
transparency = 2
alpha_scissor_threshold = 0.5
alpha_antialiasing_mode = 0
albedo_texture = ExtResource("1_a2uf4")
