[gd_resource type="StandardMaterial3D" load_steps=2 format=3 uid="uid://p6ewr8rmts8f"]

[ext_resource type="Texture2D" uid="uid://cq6rcmunddbeq" path="res://art/sumo/face/Sumo_Eyes_Sick.png" id="1_v8lj5"]

[resource]
transparency = 2
alpha_scissor_threshold = 0.5
alpha_antialiasing_mode = 0
albedo_texture = ExtResource("1_v8lj5")
