[gd_resource type="StandardMaterial3D" load_steps=2 format=3 uid="uid://dk1ywp266sq2n"]

[ext_resource type="Texture2D" uid="uid://c0v1uk3hspoc" path="res://art/sumo/face/Sumo_Eyes_Tired.png" id="1_biork"]

[resource]
transparency = 2
alpha_scissor_threshold = 0.5
alpha_antialiasing_mode = 0
albedo_texture = ExtResource("1_biork")
