#D{testStart}{THIS IS THE [img=30]res://art/symbols/s13.png[/img] START}
#CI{unlockFace}{0}
#CI{unlockFace}{1}
#CI{unlockFace}{2}
#CI{unlockFace}{3}
#CI{unlockFace}{4}
#CI{unlockFace}{5}
#D{testStart}{THIS IS THE 5}
#WT{5}{F1 F2 L3 R2 B}{succ}{succ}

#L{succ}
#D{testSuccess}{THIS IS 10 second timer}
#WT{10}{F1 F2 L3 R2 B}{fail}{fail}
#P{5}

#L{fail}
#D{testFail}{THIS IS END}