[gd_resource type="ShaderMaterial" load_steps=2 format=3 uid="uid://ctxkrt4ar4q5r"]

[ext_resource type="Shader" path="res://art/cube/shaders/light.gdshader" id="1_lad6w"]

[resource]
render_priority = 0
shader = ExtResource("1_lad6w")
shader_parameter/maskX = null
shader_parameter/maskY = null
shader_parameter/maskZ = null
shader_parameter/speed = 5.0
shader_parameter/noiseScale = Vector2(13.775, 0.1)
shader_parameter/noiseOffest = Vector2(0, 0)
shader_parameter/power = 3.78
